AWSTATS DATA FILE 7.4 (build 20150714)
# If you remove this file, all statistics for date 201606 will be lost/reset.
# Last config file used to build this data file was ./awstats.conf.

# Position (offset in bytes) in this file for beginning of each section for
# direct I/O access. If you made changes somewhere in this file, you should
# also remove completely the MAP section (AWStats will rewrite it at next
# update).
BEGIN_MAP 28
POS_GENERAL 1971                
POS_TIME 2660                
POS_VISITOR 29066               
POS_DAY 52978               
POS_DOMAIN 3704                
POS_LOGIN 4306                
POS_ROBOT 4461                
POS_WORMS 5675                
POS_EMAILSENDER 5806                
POS_EMAILRECEIVER 5949                
POS_SESSION 53916               
POS_SIDER 54130               
POS_FILETYPES 6084                
POS_DOWNLOADS 6296                
POS_OS 6407                
POS_BROWSER 6742                
POS_SCREENSIZE 8867                
POS_UNKNOWNREFERER 8941                
POS_UNKNOWNREFERERBROWSER 9546                
POS_ORIGIN 9654                
POS_SEREFERRALS 9806                
POS_PAGEREFS 9990                
POS_SEARCHWORDS 11752               
POS_KEYWORDS 23395               
POS_MISC 2322                
POS_ERRORS 27005               
POS_CLUSTER 4162                
POS_SIDER_404 27182               
END_MAP

# LastLine    = Date of last record processed - Last record line number in last log - Last record offset in last log - Last record signature value
# FirstTime   = Date of first visit for history file
# LastTime    = Date of last visit for history file
# LastUpdate  = Date of last update - Nb of parsed records - Nb of parsed old records - Nb of parsed new records - Nb of parsed corrupted - Nb of parsed dropped
# TotalVisits = Number of visits
# TotalUnique = Number of unique visitors
# MonthHostsKnown   = Number of hosts known
# MonthHostsUnKnown = Number of hosts unknown
BEGIN_GENERAL 8
LastLine 20160701000011 517078 163399507 15258836162384
FirstTime 0
LastTime 20160630235958
LastUpdate 20160701062838 517078 0 1593 598 514886
TotalVisits 957                 
TotalUnique 590                 
MonthHostsKnown 0                   
MonthHostsUnknown 600                 
END_GENERAL

# Misc ID - Pages - Hits - Bandwidth
BEGIN_MISC 10
QuickTimeSupport 0 0 0
JavaEnabled 0 0 0
JavascriptDisabled 0 0 0
PDFSupport 0 0 0
WindowsMediaPlayerSupport 0 0 0
AddToFavourites 0 807 0
RealPlayerSupport 0 0 0
TotalMisc 0 0 0
DirectorSupport 0 0 0
FlashSupport 0 0 0
END_MISC

# Hour - Pages - Hits - Bandwidth - Not viewed Pages - Not viewed Hits - Not viewed Bandwidth
BEGIN_TIME 24
0 1488 1488 4733086 7278 7325 1208484
1 949 949 7347877 7097 7139 1048997
2 581 581 2053681 6571 6606 732631
3 621 621 2166860 6456 6490 1457420
4 819 819 1316749 6005 6034 1218424
5 898 898 1611185 5798 5830 2326450
6 620 620 1924708 5454 5478 1117841
7 598 598 2649049 4068 4090 1268964
8 901 901 3150994 3566 3611 1676327
9 2858 2858 6771188 2986 3036 1414938
10 5057 5057 12228061 3434 3497 3940828
11 4787 4787 14010748 3363 3440 2317890
12 4251 4251 11269354 3479 3549 1868499
13 3689 3690 10676388 3419 3478 3298679
14 3088 3088 8147936 3652 3718 5480355
15 2811 2811 8641258 3606 3679 4063986
16 2357 2357 10478871 3885 3952 3146475
17 2770 2770 12096157 3426 3515 1366261
18 3716 3716 12958857 3383 3488 2638678
19 2099 2099 7379003 3589 3666 2272469
20 2343 2343 6901300 3704 3777 3412383
21 3224 3224 9478343 3524 3591 3689157
22 3438 3438 10051837 3783 3839 3685515
23 3081 3081 7761723 4814 4896 4328340
END_TIME

# Domain - Pages - Hits - Bandwidth
# The 10 first Pages must be first (order not required for others)
BEGIN_DOMAIN 26
eu 37173 37173 86624451
cz 10064 10064 40555196
ru 9305 9305 33486598
us 188 188 5724278
it 82 82 1366987
cn 60 60 878002
ip 50 50 1632324
no 49 49 502777
ro 16 17 116152
gb 15 15 257192
il 4 4 27533
ua 5 5 36660
tr 3 3 21276
eg 1 1 6257
kg 1 1 7092
lv 1 1 7092
kz 2 2 14184
az 3 3 764861
ca 1 1 22122
nl 7 7 53966
by 3 3 27442
fi 1 1 7092
lt 1 1 7092
de 4 4 14184
ae 4 4 51312
uz 1 1 6831
END_DOMAIN

# Cluster ID - Pages - Hits - Bandwidth
BEGIN_CLUSTER 0
END_CLUSTER

# Login - Pages - Hits - Bandwidth - Last visit
# The 10 first Pages must be first (order not required for others)
BEGIN_LOGIN 0
END_LOGIN

# Robot ID - Hits - Bandwidth - Last visit - Hits on robots.txt
# The 10 first Hits must be first (order not required for others)
BEGIN_ROBOT 29
yandex 3498 29042539 20160630235919 125
googlebot 1049 11943763 20160630225300 107
mj12bot 348 4069783 20160630235101 138
bingbot 155 1590733 20160630215949 44
[\s_+:,\.\;\/\\-]bot 110 2114825 20160622052424 4
mail\.ru 72 286156 20160630043100 52
bot[\s_+:,\.\;\/\\-] 21 1594006 20160616235639 1
cfnetwork 19 399 20160630175836 0
unknown 16 2441 20160630051932 16
ahrefsbot 11 1474 20160630164334 11
no_user_agent 1 193 20160630220556 1
blexbot 1 134 20160622201945 1
seokicks\.de 3 579 20160626162832 3
domainappender 2 386 20160630102530 2
curl 3 42335 20160621201825 1
slurp 4 30965 20160622044948 3
proximic 2 496759 20160602111841 1
filterdb\.iss\.net 3 579 20160620184204 3
google[_+\s]web[_+\s]preview 2 18823 20160610221001 0
linkdex\.com 4 12669 20160624041120 3
archive\.org_bot 3 579 20160617171828 3
favicon 3 32052 20160626202413 0
semrushbot 8 1072 20160628124228 8
checker 1 0 20160614172156 1
siteexplorer\.info 2 268 20160621192703 2
baiduspider 2 59945 20160617125207 0
netcraft 7 323465 20160626205833 0
crawl 1 134 20160626041713 1
nutch 1 134 20160618020814 1
END_ROBOT

# Worm ID - Hits - Bandwidth - Last visit
# The 5 first Hits must be first (order not required for others)
BEGIN_WORMS 0
END_WORMS

# EMail - Hits - Bandwidth - Last visit
# The 20 first Hits must be first (order not required for others)
BEGIN_EMAILSENDER 0
END_EMAILSENDER

# EMail - Hits - Bandwidth - Last visit
# The 20 first hits must be first (order not required for others)
BEGIN_EMAILRECEIVER 0
END_EMAILRECEIVER

# Files type - Hits - Bandwidth - Bandwidth without compression - Bandwidth after compression
BEGIN_FILETYPES 8
woff 5 133160 0 0
pl 2 12942 0 0
otf 78 7168512 0 0
php 1384 501778 0 0
html 998 10920363 0 0
xml 2 0 0 0
jpg 1 690 0 0
Unknown 54575 149895248 0 0
END_FILETYPES

# Downloads - Hits - Bandwidth
BEGIN_DOWNLOADS 2
/images/new_order.ogg 0 7 164780
/images/bell.ogg 0 23 3421480
END_DOWNLOADS

# OS ID - Hits
BEGIN_OS ID - Hits - Pages 18
linuxandroid 1569 1567
winlong 6 6
macosx11 73 73
winxp 164 164
winphone 13 13
ios_iphone 1371 1367
j2me 53 53
win8 110 110
ios_ipad 174 174
linuxubuntu 4 4
linux 64 64
win7 4536 4536
macosx 1 1
macosx10 4 4
Unknown 20 18
win10 48510 48487
win8.1 379 379
macosx8 24 24
END_OS

# Browser ID - Hits - Pages
BEGIN_BROWSER 94
msie6.0 13 13
chrome45.0.2454.85 11 11
chrome37.0.2062.117 6 6
chrome50.0.2661.89 215 215
chrome18.0.1025.308 18 18
firefox10.0 1 1
chrome49.0.2623.110 175 175
firefox26.0 1 1
chrome28.0.1500.94 27 27
opera37.0.2178.54 2 2
firefox18.0 2 2
chrome31.0.1650.57 18 18
chrome31.0.1650.63 63 63
msie8.0 85 85
chrome51.0.2704.81 475 473
chrome50.0.2661.94 1520 1520
chrome39.0.2171.65 3 3
opera18.0.1284.63 2 2
chrome50.0.2661.102 22647 22647
safari9.1.1 68 68
chrome30.0.1599.82 13 13
chrome27.0.1453 13 13
chrome34.0.1847.61 2 2
chrome50.0.2661.86 29 29
chrome42.0.2311.152 15 15
chrome49.0.2623.112 22 22
chrome39.0.2171.71 25 25
opera18.0.1284.49 8 8
opera22.0.1485.80265 9 9
opera12.16 38 38
opera37.0.2178.43 1 1
chrome49.0.2623.105 39 39
chrome34.0.1847.131 1 1
safari6.0 13 13
chrome28.0.1500.75 10 10
firefox38.0 2 2
chrome49.0.2623.75 20 20
firefox47.0 24 24
chrome51.0.2704.103 13653 13647
firefox33.0 6 6
opera12.10 10 10
chrome47.0.2526.106 70 70
mozilla 2 0
firefox25.0 36 36
chrome44.0.2403.157 21 21
chrome46.0.2486.0 10 10
chrome46.0.2490.86 5 5
chrome51.0.2704.77 10 10
chrome44.0.2403.133 68 68
safari 357 357
opera38.0.2220.29 1 1
safari7.0 41 41
chrome34.0.1847.76 48 48
firefox20.0 14 14
android 220 220
chrome47.5.2526.111 51 51
chrome28.0.1500.95 13 13
chrome42.0.2311.111 1 1
opera37.0.2178.41 11 11
opera12.14 6 6
iphone 74 74
chrome46.0.2490.76 36 36
chrome33.0.0.0 19 19
chrome47.0.2526.80 26 26
chrome47.0.2526.111 61 61
chrome51.0.2704.84 9002 8985
safari8.0 350 350
opera32.0.1953.96473 14 14
msie9.0 25 25
Unknown 9 9
chrome47.0.2526.83 40 40
chrome30.0.0.0 20 20
opera38.0.2220.31 43 43
opera37.0.2192.105088 17 17
opera36.2.2126.102826 4 4
chrome18.0.1025.166 1 1
chrome48.0.2564.95 6 6
chrome34.0.1847.114 1 1
chrome27.0.1453.110 22 22
firefox46.0 23 23
chrome28.0.1500.71 4 4
opera37.0.2178.32 11 11
chrome38.0.2125.102 114 114
firefox40.0.3 5986 5986
chrome36.0.1985.135 5 5
msie11.0 37 37
safari9.0 704 700
firefox1.0 2 2
opera36.0.2130.65 15 15
msie10.0 54 54
chrome25.0.1364.172 19 19
opera12.00 4 4
opera11.10 36 36
chrome48.0.2564.106 1 1
END_BROWSER

# Screen size - Hits
BEGIN_SCREENSIZE 0
END_SCREENSIZE

# Unknown referer OS - Last visit date
BEGIN_UNKNOWNREFERER 6
a.pr-cy.ru 20160621201825
Mozilla/5.0_(compatible;_Googlebot/2.1;__http://www.google.com/bot.html) 20160614135310
Opera/9.80_(Android;_Opera_Mini/7.0.29530/28.2647;_U;_ru)_Presto/2.8.119_Version/11.10 20160607042951
Opera/9.80_(Android;_Opera_Mini/7.5.31658/28.2647;_U;_ru)_Presto/2.8.119_Version/11.10 20160607042951
Opera/9.80_(Series_60;_Opera_Mini/7.1.32453/37.8625;_U;_ru)_Presto/2.12.423_Version/12.16 20160629000954
Mozilla/5.0_(compatible;_MJ12bot/v1.4.5;_http://www.majestic12.co.uk/bot.php?_) 20160628075637
END_UNKNOWNREFERER

# Unknown referer Browser - Last visit date
BEGIN_UNKNOWNREFERERBROWSER 1
a.pr-cy.ru 20160621201825
END_UNKNOWNREFERERBROWSER

# Origin - Pages - Hits 
BEGIN_ORIGIN 6
From0 843 843
From1 32 32
From2 516 517
From3 277 307
From4 55376 55376
From5 0 0
END_ORIGIN

# Search engine referers ID - Pages - Hits
BEGIN_SEREFERRALS 3
google 209 210
yandex 306 306
yahoo 1 1
END_SEREFERRALS

# External page referers - Pages - Hits
# The 10 first Pages must be first (order not required for others)
BEGIN_PAGEREFS 38
http://www.dostavka05.ru 126 126
http://m.facebook.com 49 49
http://lm.facebook.com/l.php 9 9
http://www.dostavka05.ru/restorany 9 9
http://instagram.com 9 9
http://www.dostavka05.ru/restorany/dubay 9 9
http://www.dostavka05.ru/blog/56 6 6
http://www.dostavka05.ru/restorany/randevu 6 6
http://www.dostavka05.ru/supplier/randevu 5 5
http://www.dostavka05.ru 5 5
http://www.dostavka05.ru/admin/order 0 3
http://www.dostavka05.ru/restorany/gambit 2 2
http://www.dostavka05.ru/partners 1 1
http://www.dostavka05.ru/restorany/take 1 1
http://s2.cdn2hd.xyz/serial/25c09f9435e86a934d7ab4d027b63364/iframe 1 1
http://www.dostavka05.ru/restorany/zm 3 3
http://l.facebook.com/lsr.php 2 2
http://www.dostavka05.ru/restorany/gurmaniya 3 3
http://www.dostavka05.ru/restorany/mangal 3 3
http://fiftycpc.net/rtban 1 1
http://www.dostavka05.ru/restorany/kazan-mangal 1 1
http://a.pr-cy.ru/derbent.dostavka05.ru 2 2
https://m.facebook.com 2 2
http://www.dostavka05.ru/restorany/Torino-pizza 3 3
http://www.dostavka05.ru/burger 1 1
http://www.facebook.com/l.php 2 2
http://www.dostavka05.ru/restorany/gazetta 2 2
http://www.dostavka05.ru/restorany/oazis/review 1 1
http://www.dostavka05.ru/restorany/konditerskaya-La-Creme 3 3
http://www.dostavka.az/partner/orders 0 8
http://www.dostavka05.ru/rolly-sushi 1 1
http://www.dostavka05.ru/restorany/sushi-bar-wok 1 1
http://www.dostavka05.ru/pages/about 1 1
http://www.dostavka05.ru/partner/orders 0 19
http://www.dostavka05.ru/restorany/biskotti 1 1
http://lm.facebook.com/lsr.php 2 2
http://www.dostavka05.ru/restorany/kosmos 2 2
http://www.dostavka05.ru/restorany/snack-master 2 2
END_PAGEREFS

# Search keyphrases - Number of search
# The 10 first number of search must be first (order not required for others)
BEGIN_SEARCHWORDS 83
%d1%80%d0%b5%d1%81%d1%82%d0%be%d1%80%d0%b0%d0%bd+%d0%b4%d1%83%d0%b1%d0%b0%d0%b9+%d0%b4%d0%b5%d1%80%d0%b1%d0%b5%d0%bd%d1%82 11
%d0%b4%d0%be%d1%81%d1%82%d0%b0%d0%b2%d0%ba%d0%b0+%d0%b5%d0%b4%d1%8b+%d0%b4%d0%b5%d1%80%d0%b1%d0%b5%d0%bd%d1%82 4
%d0%b1%d1%83%d1%80%d0%b3%d0%b5%d1%80+%d0%b2+%d0%b4%d0%b5%d1%80%d0%b1%d0%b5%d0%bd%d1%82%d0%b5 4
%d0%b1%d1%83%d1%80%d0%b3%d0%b5%d1%80+%d0%b4%d0%b5%d1%80%d0%b1%d0%b5%d0%bd%d1%82 3
%d0%ba%d0%b0%d1%84%d0%b5+%d1%85%d0%b0%d0%bb%d0%b0%d0%bb+%d1%81+%d0%b4%d0%be%d1%81%d1%82%d0%b0%d0%b2%d0%ba%d0%be%d0%b9+%d0%b2+%d0%94%d0%b5%d1%80%d0%b1%d0%b5%d0%bd%d1%82%d0%b5 3
%d0%b4%d0%be%d1%81%d1%82%d0%b0%d0%b2%d0%ba%d0%b0+%d0%b5%d0%b4%d1%8b+%d1%80%d0%b5%d1%81%d1%82%d0%be%d1%80%d0%b0%d0%bd+%d0%ba%d0%b0%d0%b2%d0%ba%d0%b0%d0%b7+%d0%b2+%d0%94%d0%b5%d1%80%d0%b1%d0%b5%d0%bd%d1%82%d0%b5 3
%d0%b7%d0%b0%d0%ba%d0%b0%d0%b7%d0%b0%d1%82%d1%8c+%d0%bf%d0%b8%d1%86%d1%86%d1%83+%d0%b2+%d0%b4%d0%b5%d1%80%d0%b1%d0%b5%d0%bd%d1%82%d0%b5 3
%d0%ba%d0%be%d1%81%d0%bc%d0%be%d1%81+%d0%b4%d0%be%d1%81%d1%82%d0%b0%d0%b2%d0%ba%d0%b0+%d0%b5%d0%b4%d1%8b+%d0%b4%d0%b5%d1%80%d0%b1%d0%b5%d0%bd%d1%82 3
%d1%80%d0%b5%d1%81%d1%82%d0%be%d1%80%d0%b0%d0%bd+%d1%88%d0%b5%d0%bb%d0%ba%d0%be%d0%b2%d1%8b%d0%b9+%d0%bf%d1%83%d1%82%d1%8c+%d0%b4%d0%b5%d1%80%d0%b1%d0%b5%d0%bd%d1%82 3
%d0%b4%d0%b5%d1%80%d0%b1%d0%b5%d0%bd%d1%82+%d0%bf%d0%b8%d1%86%d1%86%d0%b0+%d0%b4%d0%be%d1%81%d1%82%d0%b0%d0%b2%d0%ba%d0%b0 3
%d0%9d%d0%be%d0%bc%d0%b5%d1%80+%d0%94%d1%83%d0%b1%d0%b0%d0%b9+%d0%b2+%d0%b3%d0%be%d1%80%d0%be%d0%b4%d0%b5+%d0%94%d0%b5%d1%80%d0%b1%d0%b5%d0%bd%d1%82 1
%d1%80%d0%b5%d1%81%d1%82%d0%be%d1%80%d0%b0%d0%bd%d1%8b+%d0%b2+%d0%b3+%d0%b4%d0%b5%d1%80%d0%b1%d0%b5%d0%bd%d1%82%d0%b5 1
%d0%bd%d0%be%d0%bc%d0%b5%d1%80+%d1%82%d0%b5%d0%bb%d0%b5%d1%84%d0%be%d0%bd%d0%b0+%d0%b4%d0%be%d1%81%d1%82%d0%b0%d0%b2%d0%be%d0%ba+%d0%b5%d0%b4%d1%8b+%d0%bf%d0%be+%d0%b4%d0%b5%d1%80%d0%b1%d0%b5%d0%bd%d1%82%d1%83 1
%d1%80%d0%b5%d1%81%d1%82%d0%be%d1%80%d0%b0%d0%bd+%d1%88%d0%b5%d0%bb%d0%ba%d0%be%d0%b2%d1%8b%d0%b9+%d0%bf%d1%83%d1%82%d1%8c+%d0%b2+%d0%b4%d0%b5%d1%80%d0%b1%d0%b5%d0%bd%d1%82%d0%b5 2
%d1%81%d0%bc%d0%b0%d0%ba+%d0%b4%d0%b5%d1%80%d0%b1%d0%b5%d0%bd%d1%82 2
%d1%88%d0%b5%d0%bb%d0%ba%d0%be%d0%b2%d1%8b%d0%b9+%d0%bf%d1%83%d1%82%d1%8c+%d1%80%d0%b5%d1%81%d1%82%d0%be%d1%80%d0%b0%d0%bd+%d0%94%d0%b5%d1%80%d0%b1%d0%b5%d0%bd%d1%82 1
%d1%81%d0%b0%d0%bc%d0%b0%d1%8f+%d0%b2%d0%ba%d1%83%d1%81%d0%bd%d0%b0%d1%8f+%d1%87%d1%83%d0%b4%d1%83+%d0%b2+%d0%b4%d0%b5%d1%80%d0%b1%d0%b5%d0%bd%d1%82%d0%b5 1
%d1%80%d0%b0%d0%bd%d0%b4%d0%b5%d0%b2%d1%83+%d0%b4%d0%b5%d1%80%d0%b1%d0%b5%d0%bd%d1%82+%d0%bd%d0%be%d0%bc%d0%b5%d1%80 1
%d1%86%d0%b5%d0%bd%d1%8b+%d0%bd%d0%b0+%d0%b3%d0%be%d1%80%d1%8f%d1%87%d0%b8%d0%b5+%d1%81%d1%83%d1%88%d0%b8+%d0%a0%d0%b0%d0%bd%d0%b4%d0%b5%d0%b2%d1%83+%d0%94%d0%b5%d1%80%d0%b1%d0%b5%d0%bd%d1%82 2
%d1%88%d0%b5%d0%bb%d0%ba%d0%be%d0%b2%d1%8b%d0%b9+%d0%bf%d1%83%d1%82%d1%8c+%d0%b4%d0%b5%d1%80%d0%b1%d0%b5%d0%bd%d1%82+%d1%80%d0%b5%d1%81%d1%82%d0%be%d1%80%d0%b0%d0%bd 1
%d0%ba%d0%b8%d1%88%d0%bc%d0%b8%d1%88+%d0%bc%d0%b0%d1%85%d0%b0%d1%87%d0%ba%d0%b0%d0%bb%d0%b0+%d1%82%d0%b5%d0%bb%d0%b5%d1%84%d0%be%d0%bd 1
%d1%81%d0%ba%d0%be%d0%bb%d1%8c%d0%ba%d0%be+%d1%81%d1%82%d0%be%d0%b8%d1%82+%d0%bf%d0%be%d1%80%d1%86%d0%b8%d1%8f+%d0%b2+%d1%80%d0%b5%d1%81%d1%82%d0%be%d1%80%d0%b0%d0%bd%d0%b5+%d1%80%d0%b0%d0%bd%d0%b4%d0%b5%d0%b2%d1%83 1
%d1%80%d0%be%d0%bb%d0%bb%d1%8b+%d1%81%d1%83%d1%88%d0%b8+%d0%b4%d0%b5%d1%80%d0%b1%d0%b5%d0%bd%d1%82 1
%d0%b4%d0%be%d1%81%d1%82%d0%b0%d0%b2%d0%ba%d0%b0+%d0%b5%d0%b4%d1%8b+%d0%bf%d0%be+%d0%b4%d0%b5%d1%80%d0%b1%d0%b5%d0%bd%d1%82%d1%83 2
%d0%97%d0%b0%d0%ba%d0%b0%d0%b7+%d1%87%d1%83%d0%b4%d1%83+%d0%b2+%d0%b4%d0%b5%d1%80%d0%b1%d0%b5%d0%bd%d1%82%d0%b5 1
%d0%bc%d0%b5%d0%bd%d1%8e+%d1%80%d0%b0%d0%bd%d0%b4%d0%b5%d0%b2%d1%83+%d0%b4%d0%b5%d1%80%d0%b1%d0%b5%d0%bd%d1%82 1
%d0%ba%d1%83%d1%80%d1%82%d1%86%d0%b0+%d0%bd%d0%b0+%d1%83%d0%b3%d0%bb%d1%8f%d1%85+%d0%b4%d0%b5%d1%80%d0%b1%d0%b5%d0%bd%d1%82+%d0%b7%d0%b0%d0%ba%d0%b0%d0%b7 2
%d0%b4%d0%be%d1%81%d1%82%d0%b0%d0%b2%d0%ba%d0%b0+%d0%b4%d0%b5%d1%80%d0%b1%d0%b5%d0%bd%d1%82+%d0%b5%d0%b4%d0%b0+%d0%ba%d1%80%d1%83%d0%b3%d0%bb%d0%be%d1%81%d1%83%d1%82%d0%be%d1%87%d0%bd%d0%be 1
%d1%80%d0%b5%d1%81%d1%82%d0%be%d1%80%d0%b0%d0%bd+%d0%94%d1%83%d0%b1%d0%b0%d0%b9+%d0%b4%d0%b5%d1%80%d0%b1%d0%b5%d0%bd%d1%82 1
%d1%80%d0%b0%d0%bd%d0%b4%d0%b5%d0%b2%d1%83+%d1%82%d0%b5%d0%bb%d0%b5%d1%84%d0%be%d0%bd+%d0%94%d0%b5%d1%80%d0%b1%d0%b5%d0%bd%d1%82 1
%d0%b3+%d0%b4%d0%b5%d1%80%d0%b1%d0%b5%d0%bd%d1%82+%d0%b4%d0%be%d1%81%d1%82%d0%b0%d0%b2%d0%ba%d0%b0+%d1%82%d0%be%d1%80%d1%82%d0%be%d0%b2 2
%d0%b5%d0%b4%d0%b0+%d1%81+%d0%b4%d0%be%d1%81%d1%82%d0%b0%d0%b2%d0%ba%d0%be%d0%b9+%d0%b3.%d0%b4%d0%b5%d1%80%d0%b1%d0%b5%d0%bd%d1%82 1
%d1%80%d0%b0%d0%bd%d0%b4%d0%b5%d0%b2%d1%83+%d0%bc%d0%b5%d0%bd%d1%8e 1
%d1%81%d1%83%d1%88%d0%b8+%d0%b2+%d0%94%d0%b5%d1%80%d0%b1%d0%b5%d0%bd%d1%82%d0%b5+%d0%b7%d0%b0%d0%ba%d0%b0%d0%b7%d0%b0%d1%82%d1%8c 1
%d0%ba%d0%b0%d1%84%d0%b5+%d1%80%d0%b0%d0%bd%d0%b4%d0%b5%d0%b2%d1%83+%d0%b4%d0%b5%d1%80%d0%b1%d0%b5%d0%bd%d1%82 1
%d0%b4%d0%b5%d1%80%d0%b1%d0%b5%d0%bd%d1%82+%d0%b3%d0%b4%d0%b5+%d0%bc%d0%be%d0%b6%d0%bd%d0%be+%d0%b7%d0%b0%d0%ba%d0%b0%d0%b7%d0%b0%d1%82%d1%8c+%d0%bc%d0%b0%d1%81%d0%b0%d0%b6%d0%bd%d1%8b%d0%b9 1
%d0%b4%d1%83%d0%b1%d0%b0%d0%b9+%d0%b4%d0%b5%d1%80%d0%b1%d0%b5%d0%bd%d1%82+%d0%b7%d0%b0%d0%ba%d0%b0%d0%b7+%d0%b5%d0%b4%d1%8b 1
%d0%ba%d0%b0%d1%84%d0%b5+%d1%80%d0%b0%d0%bd%d0%b4%d0%b5%d0%b2%d1%83+%d0%b4%d0%b5%d1%80%d0%b1%d0%b5%d0%bd%d1%82+%d0%bc%d0%b5%d0%bd%d1%8e 2
%d0%9d%d0%be%d0%bc%d0%b5%d1%80+%d1%82%d0%b5%d0%bb%d0%b5%d1%84%d0%be%d0%bd%d0%b0+%d0%94%d1%83%d0%b1%d0%b0%d0%b9+%d0%b2+%d0%b3%d0%be%d1%80%d0%be%d0%b4%d0%b5+%d0%94%d0%b5%d1%80%d0%b1%d0%b5%d0%bd%d1%82 1
%d1%80%d0%b5%d1%81%d1%82%d0%be%d1%80%d0%b0%d0%bd+%d0%b4%d1%83%d0%b1%d0%b0%d0%b9+%d0%94%d0%b5%d1%80%d0%b1%d0%b5%d0%bd%d1%82 2
%d1%80%d0%b0%d0%bd%d0%b4%d0%b5%d0%b2%d1%83+%d0%bc%d0%b5%d0%bd%d1%8e+%d1%86%d0%b5%d0%bd%d1%8b 2
%d0%b4%d0%be%d1%81%d1%82%d0%b0%d0%b2%d0%ba%d0%b0+%d1%81%d0%bc%d0%b0%d0%ba+%d0%b2+%d0%b4%d0%b5%d1%80%d0%b1%d0%b5%d0%bd%d1%82%d0%b5 1
%d0%b7%d0%b0%d0%ba%d0%b0%d0%b7+%d0%bf%d0%b8%d1%86%d1%86%d1%8b+%d0%b4%d0%b5%d1%80%d0%b1%d0%b5%d0%bd%d1%82 2
%d0%b4%d0%b5%d1%80%d0%b1%d0%b5%d0%bd%d1%82+%d1%80%d0%b5%d1%81%d1%82%d0%be%d1%80%d0%b0%d0%bd 2
%d0%ba%d1%83%d0%bf%d0%b8%d1%82%d1%8c+%d0%ba%d1%83%d1%82%d1%83%d0%bc+%d0%b2+%d0%b4%d0%b5%d1%80%d0%b1%d0%b5%d0%bd%d1%82%d0%b5 3
%d0%bf%d0%b8%d1%86%d1%86%d0%b0+%d0%b2+%d1%80%d0%be%d0%b4%d0%b4%d0%be%d0%bc+%d0%b2+%d0%94%d0%b5%d1%80%d0%b1%d0%b5%d0%bd%d1%82%d0%b5 2
%d0%b7%d0%b0%d0%ba%d0%b0%d0%b7+%d0%ba%d1%83%d1%80%d0%b8%d1%86%d1%8b+%d0%bd%d0%b0+%d1%83%d0%b3%d0%bb%d1%8f%d1%85+%d0%b4%d0%b5%d1%80%d0%b1%d0%b5%d0%bd%d1%82 1
%d0%ba%d0%be%d1%84%d0%b5%d0%b9%d0%bd%d1%8b%d0%b9+%d1%88%d0%be%d0%ba%d0%b0%d0%bb%d0%b0%d0%b4+%d1%80%d0%b5%d1%81%d1%82%d0%be%d1%80%d0%b0%d0%bd%d1%82+%d0%b2+%d0%b4%d0%b5%d1%80%d0%b1%d0%b5%d0%bd%d1%82%d0%b5 1
%d0%b4%d1%83%d0%b1%d0%b0%d0%b9+%d1%80%d0%b5%d1%81%d1%82%d0%be%d1%80%d0%b0%d0%bd+%d0%b4%d0%b5%d1%80%d0%b1%d0%b5%d0%bd%d1%82 1
%d1%80%d0%b5%d1%81%d1%82%d0%be%d1%80%d0%b0%d0%bd+%d1%88%d0%be%d0%ba%d0%be%d0%bb%d0%b0%d0%b4+%d0%b4%d0%b5%d1%80%d0%b1%d0%b5%d0%bd%d1%82%d0%b5+%d0%b7%d0%b0%d0%ba%d0%b0%d0%b7+%d0%b5%d0%b4%d1%8b 2
%d1%80%d0%b0%d0%bd%d0%b4%d0%b5%d0%b2%d1%83+%d0%b7%d0%b0%d0%ba%d0%b0%d0%b7%d1%8b+%d0%b4%d0%b5%d1%80%d0%b1%d0%b5%d0%bd%d1%82 1
%d0%bf%d0%b8%d1%86%d1%86%d0%b0+%d0%b4%d0%b5%d1%80%d0%b1%d0%b5%d0%bd%d1%82 1
%d1%80%d0%b5%d1%81%d1%82%d0%be%d1%80%d0%b0%d0%bd+%d0%94%d1%83%d0%b1%d0%b0%d0%b9+%d0%b4%d0%b5%d1%80%d0%b1%d0%b5%d0%bd%d1%82+%d1%82%d0%b5%d0%bb%d0%b5%d1%84%d0%be%d0%bd 1
randevu+05 1
%d0%b4%d0%b5%d0%be%d0%b1%d0%b5%d0%bd%d1%82+%d1%80%d0%b0%d0%bd%d0%b4%d0%b5%d0%b2%d1%83+%d0%bc%d0%b5%d0%bd%d1%8e+%d1%86%d0%b5%d0%bd%d1%8b 1
%d1%80%d0%be%d0%bb%d0%bb%d1%8b+%d1%8d%d0%ba%d1%81%d0%bf%d1%80%d0%b5%d1%81%d1%81+%d0%b4%d0%b5%d1%80%d0%b1%d0%b5%d0%bd%d1%82 3
%d1%86%d0%b5%d0%bd%d1%8b+%d0%ba%d0%b0%d1%84%d0%b5+%d0%9a%d0%be%d1%81%d0%bc%d0%be%d1%81+%d0%b3%d0%be%d1%80%d0%be%d0%b4%d0%b0+%d0%94%d0%b5%d1%80%d0%b1%d0%b5%d0%bd%d1%82%d0%b0 2
%d0%b4%d0%be%d1%81%d1%82%d0%b0%d0%b2%d0%ba%d0%b0+%d0%b5%d0%b4%d1%8b+%d0%b4%d0%b5%d1%80%d0%b1%d0%b5%d0%bd%d1%82+%d0%bf%d0%be%d0%bb%d0%b8%d0%bc%d0%b5%d1%80 1
%d1%80%d0%b5%d1%81%d1%82%d0%be%d1%80%d0%b0%d0%bd+%d0%b4%d1%83%d0%b1%d0%b0%d0%b9+%d0%b4%d0%b5%d1%80%d0%b1%d0%b5%d0%bd%d1%82+%d0%bc%d0%b5%d0%bd%d1%8e 1
%d1%80%d0%b5%d1%81%d1%82%d0%be%d1%80%d0%b0%d0%bd+%d0%ba%d0%be%d1%81%d0%bc%d0%be%d1%81+%d0%b4%d0%b5%d1%80%d0%b1%d0%b5%d0%bd%d1%82 1
%d0%b1%d1%83%d1%80%d0%b3%d0%b5%d1%80%d1%8b+%d0%b4%d0%b5%d1%80%d0%b1%d0%b5%d0%bd%d1%82 2
%d1%80%d0%b5%d1%81%d1%82%d0%be%d1%80%d0%b0%d0%bd+%d0%b2+%d0%b4%d0%b5%d1%80%d0%b1%d0%b5%d0%bd%d1%82%d0%b5+%d0%b4%d1%83%d0%b1%d0%b0%d0%b9+%d0%bc%d0%b5%d0%bd%d1%8e+%d0%bd%d0%b0+%d0%b7%d0%b0%d0%ba%d0%b0%d0%b7 1
%d1%80%d0%b0%d0%bd%d0%b4%d0%b5%d0%b2%d1%83+%d0%bc%d0%b5%d0%bd%d1%8e+%d0%94%d0%b5%d1%80%d0%b1%d0%b5%d0%bd%d1%82%d0%b0 1
%d0%b3%d0%b4%d0%b5+%d0%bc%d0%be%d0%b6%d0%bd%d0%be+%d0%b7%d0%b0%d0%ba%d0%b0%d0%b7%d0%b0%d1%82%d1%8c+%d1%81%d1%83%d1%88%d0%b8+%d0%b2+%d0%b4%d0%b5%d1%80%d0%b1%d0%b5%d0%bd%d1%82%d0%b5 3
%d0%ba%d0%b0%d0%ba+%d0%b7%d0%b0%d0%ba%d0%b0%d0%b7%d0%b0%d1%82%d1%8c+%d0%bf%d0%b8%d1%86%d1%86%d1%83+%d0%b2+%d0%94%d0%b5%d1%80%d0%b1%d0%b5%d0%bd%d1%82%d0%b5+%d0%b2+%d1%80%d0%be%d0%b4%d0%b4%d0%be%d0%bc 1
%d1%80%d0%b5%d1%81%d1%82%d0%be%d1%80%d0%b0%d0%bd+%d0%ba%d0%be%d1%81%d0%bc%d0%be%d1%81+%d0%b2+%d0%b4%d0%b5%d1%80%d0%b1%d0%b5%d0%bd%d1%82%d0%b5 1
%d0%ba%d0%b0%d1%84%d0%b5+%d1%80%d0%b0%d0%bd%d0%b4%d0%b5%d0%b2%d1%83+%d0%b2+%d0%b4%d0%b5%d1%80%d0%b1%d0%b5%d0%bd%d1%82%d0%b5+%d0%bc%d0%b5%d0%bd%d1%8e 1
%d0%b4%d1%83%d0%b1%d0%b0%d0%b8+%d0%94%d0%b5%d1%80%d0%b1%d0%b5%d0%bd%d1%82+%d0%b7%d0%b0%d0%ba%d0%b0%d0%b7%d0%b0%d1%82%d1%8c 1
%d1%80%d0%b5%d1%81%d1%82%d0%be%d1%80%d0%b0%d0%bd+%d1%88%d0%be%d0%ba%d0%be%d0%bb%d0%b0%d0%b4+%d0%b2+%d0%bc%d0%b0%d1%85%d0%b0%d1%87%d0%ba%d0%b0%d0%bb%d0%b5 2
%d0%ba%d1%83%d1%80%d1%8b+%d0%bd%d0%b0+%d1%83%d0%b3%d0%bb%d1%8f%d1%85+%d0%b4%d0%b5%d1%80%d0%b1%d0%b5%d0%bd%d1%82 1
%d1%80%d0%b5%d1%81%d1%82%d0%be%d1%80%d0%b0%d0%bd+%d1%8d%d0%b4%d0%b5%d0%bc+%d0%b4%d0%b5%d1%80%d0%b1%d0%b5%d0%bd%d1%82 2
%d1%81%d1%83%d1%88%d0%b8+%d0%b2+%d0%b4%d0%b5%d1%80%d0%b1%d0%b5%d0%bd%d1%82%d0%b5 1
%d0%bf%d0%b8%d1%86%d1%86%d0%b0+%d0%b2+%d0%b4%d0%b5%d1%80%d0%b1%d0%b5%d0%bd%d1%82%d0%b5+%d0%bd%d0%b0+%d0%b7%d0%b0%d0%ba%d0%b0%d0%b7 3
%d0%b4%d1%83%d0%b1%d0%b0%d0%b9+%d0%b4%d0%b5%d1%80%d0%b1%d0%b5%d0%bd%d1%82 2
%d0%bc%d0%b5%d0%bd%d1%8e+%d1%80%d0%b5%d1%81%d1%82%d0%be%d1%80%d0%b0%d0%bd%d0%be%d0%b2 1
%d0%94%d0%b5%d1%80%d0%b1%d0%b5%d0%bd%d1%82+%d0%b4%d0%be%d1%81%d1%82%d0%b0%d0%b2%d0%ba%d0%b0+%d0%b5%d0%b4%d1%8b 1
%d0%b2%d0%ba%d1%83%d1%81%d0%bd%d0%be+%d0%bf%d0%be%d0%b5%d1%81%d1%82%d1%8c+%d0%b2+%d0%bc%d0%b0%d1%85%d0%b0%d1%87%d0%ba%d0%b0%d0%bb%d0%b5 2
%d0%b7%d0%b0%d0%ba%d0%b0%d0%b7%d0%b0%d1%82%d1%8c+%d0%b5%d0%b4%d1%83+%d0%bd%d0%b0+%d0%b4%d0%be%d0%bc+%d0%b4%d0%b5%d1%80%d0%b1%d0%b5%d0%bd%d1%82+%d0%bc%d0%be%d0%bd%d0%b0%d0%ba%d0%be 1
%d1%80%d0%b0%d0%bd%d0%b4%d0%b5%d0%b2%d1%83+%d0%b4%d0%b5%d1%80%d0%b1%d0%b5%d0%bd%d1%82+%d0%bf%d0%b8%d1%86%d1%86%d0%b0+%d0%bc%d0%b5%d0%bd%d1%8e 1
%d0%a0%d0%b0%d0%bd%d0%b4%d0%b5%d0%b2%d1%83+%d1%83+%d0%94%d0%b5%d1%80%d0%b1%d0%b5%d0%bd%d1%82+%d0%bc%d0%b5%d0%bd%d1%8e 1
%d1%80%d0%b0%d0%bd%d0%b4%d0%b5%d0%b2%d1%83+%d0%b4%d0%b5%d1%80%d0%b1%d0%b5%d0%bd%d1%82+%d0%bc%d0%b5%d0%bd%d1%8e 3
%d1%80%d0%b0%d0%bd%d0%b4%d0%b5%d0%b2%d1%83+%d0%b4%d0%b5%d1%80%d0%b1%d0%b5%d0%bd%d1%82+%d0%bd%d0%be%d0%bc%d0%b5%d1%80+%d0%b4%d0%bb%d1%8f+%d0%b7%d0%b0%d0%ba%d0%b0%d0%b7%d0%b0 1
%d0%b4%d0%be%d1%81%d1%82%d0%b0%d0%b2%d0%ba%d0%b0+%d0%b5%d0%b4%d1%8b+%d0%9e%d1%82+%d0%a0%d0%b0%d0%bd%d0%b4%d0%b5%d0%b2%d1%83+%d0%b2+%d0%94%d0%b5%d1%80%d0%b1%d0%b5%d0%bd%d1%82%d0%b5 1
END_SEARCHWORDS

# Search keywords - Number of search
# The 10 first number of search must be first (order not required for others)
BEGIN_KEYWORDS 95
%d0%b4%d0%b5%d1%80%d0%b1%d0%b5%d0%bd%d1%82 72
%d0%b2 48
%d1%80%d0%b5%d1%81%d1%82%d0%be%d1%80%d0%b0%d0%bd 38
%d0%b4%d0%b5%d1%80%d0%b1%d0%b5%d0%bd%d1%82%d0%b5 29
%d0%b4%d0%be%d1%81%d1%82%d0%b0%d0%b2%d0%ba%d0%b0 22
%d0%b5%d0%b4%d1%8b 19
%d0%b4%d1%83%d0%b1%d0%b0%d0%b9 19
%d1%80%d0%b0%d0%bd%d0%b4%d0%b5%d0%b2%d1%83 19
%d0%bc%d0%b5%d0%bd%d1%8e 17
%d0%b7%d0%b0%d0%ba%d0%b0%d0%b7 12
%d0%b5%d0%b4%d1%83 1
%d1%81%d0%bc%d0%b0%d0%ba 3
%d1%88%d0%be%d0%ba%d0%be%d0%bb%d0%b0%d0%b4 4
%d1%82%d0%be%d1%80%d1%82%d0%be%d0%b2 2
%d0%b1%d1%83%d1%80%d0%b3%d0%b5%d1%80%d1%8b 2
%d0%bf%d0%b8%d1%86%d1%86%d1%8b 2
%d0%ba%d1%80%d1%83%d0%b3%d0%bb%d0%be%d1%81%d1%83%d1%82%d0%be%d1%87%d0%bd%d0%be 1
%d0%b3%d0%be%d1%80%d0%be%d0%b4%d0%b5 2
%d0%ba%d0%be%d1%81%d0%bc%d0%be%d1%81 5
%d0%b3 3
%d1%8d%d0%ba%d1%81%d0%bf%d1%80%d0%b5%d1%81%d1%81 3
%d0%94%d0%b5%d1%80%d0%b1%d0%b5%d0%bd%d1%82 11
%d0%b2%d0%ba%d1%83%d1%81%d0%bd%d0%b0%d1%8f 1
%d1%83 1
%d0%ba%d1%83%d1%80%d1%8b 1
%d1%81%d1%83%d1%88%d0%b8 8
%d1%81 4
%d0%94%d0%b5%d1%80%d0%b1%d0%b5%d0%bd%d1%82%d0%b0 3
%d0%b5%d0%b4%d0%b0 2
%d0%bf%d0%be 3
%d1%88%d0%b5%d0%bb%d0%ba%d0%be%d0%b2%d1%8b%d0%b9 7
%d0%ba%d1%83%d0%bf%d0%b8%d1%82%d1%8c 3
%d1%80%d0%be%d0%bb%d0%bb%d1%8b 4
%d0%bf%d0%be%d0%b5%d1%81%d1%82%d1%8c 2
%d1%86%d0%b5%d0%bd%d1%8b 7
%d0%bc%d0%b0%d1%85%d0%b0%d1%87%d0%ba%d0%b0%d0%bb%d0%b0 1
%d0%9d%d0%be%d0%bc%d0%b5%d1%80 2
%d1%82%d0%b5%d0%bb%d0%b5%d1%84%d0%be%d0%bd%d0%b0 2
%d1%80%d0%b5%d1%81%d1%82%d0%be%d1%80%d0%b0%d0%bd%d1%8b 1
%d0%b7%d0%b0%d0%ba%d0%b0%d0%b7%d1%8b 1
%d0%ba%d0%be%d1%84%d0%b5%d0%b9%d0%bd%d1%8b%d0%b9 1
%d0%bf%d0%b8%d1%86%d1%86%d1%83 4
%d0%b3.%d0%b4%d0%b5%d1%80%d0%b1%d0%b5%d0%bd%d1%82 1
%d0%bc%d0%b0%d1%81%d0%b0%d0%b6%d0%bd%d1%8b%d0%b9 1
%d1%85%d0%b0%d0%bb%d0%b0%d0%bb 3
%d0%b4%d0%be%d1%81%d1%82%d0%b0%d0%b2%d0%ba%d0%be%d0%b9 4
%d1%81%d0%b0%d0%bc%d0%b0%d1%8f 1
%d0%b4%d0%be%d1%81%d1%82%d0%b0%d0%b2%d0%be%d0%ba 1
%d0%9e%d1%82 1
%d0%b1%d1%83%d1%80%d0%b3%d0%b5%d1%80 7
%d1%83%d0%b3%d0%bb%d1%8f%d1%85 4
%d0%bd%d0%be%d0%bc%d0%b5%d1%80 3
%d0%94%d0%b5%d1%80%d0%b1%d0%b5%d0%bd%d1%82%d0%b5 11
%d0%b3%d0%be%d1%80%d1%8f%d1%87%d0%b8%d0%b5 2
%d0%b3%d0%be%d1%80%d0%be%d0%b4%d0%b0 2
%d1%88%d0%be%d0%ba%d0%b0%d0%bb%d0%b0%d0%b4 1
%d0%b4%d0%be%d0%bc 1
%d1%8d%d0%b4%d0%b5%d0%bc 2
%d0%ba%d1%83%d1%80%d1%82%d1%86%d0%b0 2
%d0%bf%d0%be%d0%bb%d0%b8%d0%bc%d0%b5%d1%80 1
05 1
%d0%bf%d0%b8%d1%86%d1%86%d0%b0 10
%d0%b7%d0%b0%d0%ba%d0%b0%d0%b7%d0%b0%d1%82%d1%8c 11
%d1%81%d1%82%d0%be%d0%b8%d1%82 1
%d0%b4%d0%b5%d1%80%d0%b1%d0%b5%d0%bd%d1%82%d1%83 3
%d0%b3%d0%b4%d0%b5 4
%d1%80%d0%b5%d1%81%d1%82%d0%be%d1%80%d0%b0%d0%bd%d1%82 1
%d0%bc%d0%be%d0%b6%d0%bd%d0%be 4
%d0%b2%d0%ba%d1%83%d1%81%d0%bd%d0%be 2
%d0%ba%d1%83%d1%80%d0%b8%d1%86%d1%8b 1
%d0%bf%d1%83%d1%82%d1%8c 7
%d0%b4%d1%83%d0%b1%d0%b0%d0%b8 1
%d0%ba%d0%b0%d0%b2%d0%ba%d0%b0%d0%b7 3
%d1%80%d0%b5%d1%81%d1%82%d0%be%d1%80%d0%b0%d0%bd%d0%b5 1
%d0%b4%d0%b5%d0%be%d0%b1%d0%b5%d0%bd%d1%82 1
%d0%9a%d0%be%d1%81%d0%bc%d0%be%d1%81 2
%d1%82%d0%b5%d0%bb%d0%b5%d1%84%d0%be%d0%bd 3
%d0%bc%d0%be%d0%bd%d0%b0%d0%ba%d0%be 1
%d1%87%d1%83%d0%b4%d1%83 2
%d0%94%d1%83%d0%b1%d0%b0%d0%b9 4
%d0%ba%d0%b8%d1%88%d0%bc%d0%b8%d1%88 1
%d0%97%d0%b0%d0%ba%d0%b0%d0%b7 1
%d0%bd%d0%b0 11
%d0%bc%d0%b0%d1%85%d0%b0%d1%87%d0%ba%d0%b0%d0%bb%d0%b5 4
%d1%80%d0%b5%d1%81%d1%82%d0%be%d1%80%d0%b0%d0%bd%d0%be%d0%b2 1
%d0%b4%d0%bb%d1%8f 1
randevu 1
%d0%ba%d1%83%d1%82%d1%83%d0%bc 3
%d0%ba%d0%b0%d1%84%d0%b5 9
%d0%b7%d0%b0%d0%ba%d0%b0%d0%b7%d0%b0 1
%d0%ba%d0%b0%d0%ba 1
%d1%81%d0%ba%d0%be%d0%bb%d1%8c%d0%ba%d0%be 1
%d1%80%d0%be%d0%b4%d0%b4%d0%be%d0%bc 3
%d0%bf%d0%be%d1%80%d1%86%d0%b8%d1%8f 1
%d0%a0%d0%b0%d0%bd%d0%b4%d0%b5%d0%b2%d1%83 4
END_KEYWORDS

# Errors - Hits - Bandwidth
BEGIN_ERRORS 7
401 2 580
403 627 115368
302 100216 3242071
206 5 117167
500 154 481241
404 117 877642
301 444 15425
END_ERRORS

# URL with 404 errors - Hits - Last URL referrer
BEGIN_SIDER_404 37
/js/maps/swiper.jquery.min.js.map 3 -
/upload/partner/partner_72.png 5 -
/upload/partner/partner_66.png 3 -
/5dc935ee3fe96098f0b7f87901e5bdf86b555295/ 1 http://derbent.dostavka05.ru/restorany/randevu
/.well-known/apple-app-site-association 25 -
/.well-known/assetlinks.json 7 -
/upload/partner/partner_70.png 2 -
/upload/partner/partner_76.png 2 -
/upload/partner/partner_81.png 1 -
/upload/partner/partner_27.png 1 -
/site/%5C/restorany%5C/blin-haus 1 -
/upload/partner/partner_54.png 2 -
/site/%5C/upload%5C/partner%5C/logo_partner_170.png 1 -
/upload/goods/goods_6009.png 1 https://www.google.ru/
/upload/partner/partner_67.png 2 -
/site/%5C/restorany%5C/supermarket-al-hayat 1 -
/upload/partner/partner_166.png 1 https://www.google.ru/
/upload/partner/partner_79.png 2 -
/upload/partner/partner_48.png 1 -
/9da7a9e0-c0a4-48c1-8606-f902af7713c4 1 -
/invoker 1 -
/upload/partner/partner_55.png 2 -
/a2dbf4d7-a11d-4106-b422-fbedf3b5eee5 2 -
/upload/goods/smallgoods_12069.png 1 https://dostavka05.ru/admin/order/id/35070/view
/1b1cc048-31c0-4eef-8fea-08b050b5eead 1 -
/site/%5C/upload%5C/partner%5C/logo_partner_184.jpg 1 -
/SetCityCookie 10 -
/upload/partner/partner_68.png 3 -
/ba2b1f5ef258944cbbc7a949cde7a726 1 -
/site/%5C/upload%5C/partner%5C/logo_partner_188.png 1 -
/be76b3d7-09d3-46c7-8227-1e394f1538bf 1 -
/site/%5C/upload%5C/partner%5C/logo_partner_190.png 1 -
/site/%5C/upload%5C/partner%5C/logo_partner_181.png 1 -
/upload/partner/partner_77.png 2 -
/apple-app-site-association 24 -
/44622c6f-1bbd-4626-8137-b6895eed7589 1 -
/site/%5C/restorany%5C/FreshBox 1 -
END_SIDER_404

# Host - Pages - Hits - Bandwidth - Last visit date - [Start date of last visit] - [Last page of last visit]
# [Start date of last visit] and [Last page of last visit] are saved only if session is not finished
# The 10 first Hits must be first (order not required for others)
BEGIN_VISITOR 600
185.34.22.187 12953 12953 32826420 20160615152224
185.34.22.69 7608 7608 16997136 20160605062446
176.14.54.136 5905 5905 10020963 20160615101948
185.34.22.60 5443 5443 12053399 20160619213404
185.34.22.192 3423 3423 4615475 20160605232411
185.34.22.183 2961 2961 4858614 20160621070450
176.115.124.49 2287 2287 7264307 20160601175829
185.34.22.1 1696 1696 2923515 20160623110808
185.34.22.142 1532 1532 4905989 20160630235958
176.120.211.214 1520 1520 4261873 20160603131732
37.204.55.52 5 5 102118 20160629222432
81.24.208.121 1 1 6257 20160602211945
85.26.186.170 7 7 50738 20160618003536
185.34.22.156 5 5 49627 20160619125436
95.221.204.53 5 5 74901 20160629222433
176.122.51.231 1 1 25741 20160611141338
46.188.24.169 1 1 15399 20160605164503
176.113.120.188 4 4 50372 20160629114100
95.59.56.11 1 1 7092 20160607175417
217.69.133.169 2 2 21684 20160617104058
93.179.98.232 1 1 29577 20160603074527
84.111.108.113 1 1 7092 20160602174903
185.3.35.189 5 5 50481 20160620175553
91.205.129.8 0 2 172300 
78.156.234.161 60 60 103870 20160603151932
176.122.51.158 7 7 50596 20160617012451
185.3.32.216 1 1 7071 20160629192606
95.153.130.89 14 14 90683 20160628224648
192.162.212.129 2 2 1001 20160604205521
93.81.71.161 34 34 15683 20160605200152
5.45.255.92 1 1 6262 20160602081917
176.113.123.19 4 4 50372 20160626183324
95.153.131.47 1 1 6665 20160601185754
176.113.126.200 7 7 313998 20160614104912
185.23.66.36 5 5 49634 20160629094958
212.112.119.172 1 1 7092 20160602150355
31.173.80.218 6 6 56271 20160616095133
188.0.188.37 7 7 22635 20160622225225
185.3.33.158 7 7 13497 20160611111502
176.122.51.149 37 37 354400 20160630180113
176.77.113.131 4 4 50689 20160616151811
90.154.98.155 2 2 99793 20160612061338
217.118.81.219 3 3 50057 20160615144646
46.98.251.219 1 1 9962 20160606185630
95.220.170.78 1 1 25864 20160612082226
109.172.58.120 4 4 49613 20160621024402
176.122.51.195 2 2 6278 20160607001905
185.3.35.141 11 11 60810 20160626165630
83.234.144.252 18 18 124579 20160618181751
176.122.61.148 25 25 280745 20160619171612
95.221.232.142 2 2 14374 20160607042951
95.153.131.91 2 2 13330 20160603173551
78.180.98.163 1 1 7092 20160607113416
81.163.60.255 19 19 268494 20160619214703
176.15.62.114 1 1 28646 20160613231829
176.120.221.19 8 8 76305 20160615154045
176.113.121.41 5 5 50519 20160630193759
5.251.163.47 1 1 6257 20160602224915
95.153.129.0 1 1 6877 20160602113346
37.140.189.204 10 10 103355 20160628151314
62.182.204.194 1 1 6257 20160607203929
79.172.106.132 5 5 74535 20160630072420
185.3.35.102 7 7 50777 20160628022749
176.97.168.244 1 1 7092 20160608104249
83.234.144.253 12 12 108706 20160628185609
66.249.88.169 3 3 135795 20160606170324
52.34.92.215 1 1 14285 20160601180408
193.33.241.240 5 5 49911 20160625163809
62.182.205.193 32 32 319797 20160625234344
46.242.79.162 5 5 108734 20160627015853
176.113.126.212 9 9 219005 20160607111740
217.118.81.254 22 22 91785 20160627192515
128.68.0.78 2 2 121671 20160612093144
178.140.10.158 4 4 51241 20160627115355
85.26.183.132 15 15 158193 20160623161122
176.122.51.155 71 71 299205 20160613105433
217.118.81.209 24 24 100556 20160603181827
5.3.146.155 5 5 75390 20160630135124
109.172.59.107 1 1 6257 20160603011030
51.179.110.0 1 1 6257 20160603001715
176.113.126.15 3 3 14155 20160605162101
217.118.81.24 2 2 13165 20160611223635
128.75.114.10 1 1 28764 20160603162837
87.70.69.177 1 1 7092 20160602111951
176.98.148.195 5 5 86577 20160621111052
185.34.22.94 1 1 6832 20160604135557
85.26.183.57 4 4 10386 20160612154236
176.122.51.234 5 5 50132 20160630121126
62.182.204.166 2 2 39163 20160601095507
217.118.81.200 2 2 14106 20160613154854
176.120.200.73 5 5 18090 20160601121043
95.153.130.141 6 6 51680 20160625173947
185.17.132.3 1 1 7092 20160606143142
176.122.51.241 17 17 328151 20160624180635
85.26.183.16 1 1 7059 20160611183020
188.255.21.236 9 9 124345 20160616151811
54.244.48.22 3 3 65783 20160629132109
176.122.51.141 47 47 301041 20160614233155
141.0.12.91 11 11 54960 20160612183528
176.195.177.127 1 1 8577 20160605164519
185.3.32.95 1 1 6117 20160605012157
91.205.131.3 8 8 74453 20160618122227
54.160.84.111 1 1 12267 20160613210031
85.26.186.168 5 5 50384 20160621101213
176.122.51.148 7 7 54173 20160627144616
81.163.48.0 4 4 11350 20160613225739
95.153.131.206 3 3 49311 20160615143651
91.109.30.104 15 15 257192 20160615140059
66.102.6.181 4 4 193883 20160630163115
185.59.246.9 24 24 193934 20160601210846
95.153.131.136 1 1 6755 20160604224059
185.34.22.115 3 3 13479 20160608185039
95.153.131.55 4 4 50757 20160606191042
77.45.193.124 2 2 13278 20160613165215
185.3.35.153 2 2 4473 20160624111547
176.113.124.100 1 1 6262 20160602075034
185.26.180.59 9 9 60989 20160627173453
54.191.5.95 1 1 12217 20160622022947
78.156.234.169 14 14 196861 20160618180046
185.3.35.140 15 15 20983 20160626165546
109.165.54.24 1 1 29577 20160601231819
62.90.234.113 1 1 7092 20160602112813
95.221.234.219 5 5 75157 20160629222431
95.153.132.41 7 7 34913 20160601214754
85.26.183.85 1 1 6755 20160604131145
128.68.5.240 2 2 102699 20160612093138
31.170.250.65 1 1 6876 20160601212945
217.118.81.194 4 4 49546 20160626214634
95.153.128.230 2 2 14118 20160614103031
95.153.128.157 1 1 6411 20160607181354
185.17.135.197 12 12 32030 20160608140529
185.3.34.130 5 5 15442 20160611164902
95.153.130.184 13 13 51637 20160612023219
185.3.34.199 6 6 55960 20160626153651
176.193.146.217 2 2 119885 20160612093206
46.251.69.5 5 5 75004 20160629222427
185.30.90.220 0 3 446280 
176.122.51.227 8 8 33651 20160606211702
54.248.153.153 1 1 14290 20160602111650
217.118.81.211 8 8 9540 20160601120949
176.122.61.193 11 11 59791 20160630120442
176.113.126.131 77 77 438644 20160611115130
188.227.44.245 1 1 6257 20160603071147
141.0.12.125 3 3 48246 20160630080532
95.221.204.114 1 1 10996 20160605004623
176.113.126.16 5 5 99371 20160622124954
128.75.83.113 6 6 166926 20160629172106
2.92.132.200 1 1 7889 20160612063857
62.182.202.30 4 4 49983 20160622164258
176.113.125.201 5 5 101209 20160630142618
178.140.155.6 5 5 101209 20160630135115
188.162.166.14 7 7 36247 20160612192454
109.127.6.21 0 4 595040 
93.80.164.187 2 2 101279 20160612061338
176.113.124.192 5 5 11755 20160604002929
176.122.51.209 5 5 50474 20160617173002
62.182.203.33 12 12 77284 20160630085802
95.153.135.181 4 4 49999 20160627153948
85.115.248.167 24 24 106266 20160625141438
95.221.204.9 1 1 27211 20160604103236
46.188.71.198 2 2 102695 20160612061350
176.101.240.3 1 1 7092 20160602125134
217.118.81.232 4 4 31500 20160617001905
188.134.13.221 5 5 73677 20160625132528
176.122.51.153 3 3 47844 20160614215124
176.113.124.145 1 1 6379 20160610144215
2a02:8109:8e40:53a4:4410:2568:d723:fb49 21 21 141050 20160616114147
176.122.59.164 18 18 15822 20160611135855
83.234.144.254 11 11 49805 20160605235238
176.97.188.21 611 611 2576357 20160608173427
176.122.51.214 8 8 69282 20160619093551
94.141.80.21 1 1 6831 20160602122815
66.249.93.86 2 2 726 20160621201825
62.138.6.53 2 2 0 20160619094929
185.17.134.2 6 6 74386 20160623122618
176.113.121.43 22 22 308231 20160628100914
83.149.45.82 19 19 100944 20160624030729
176.122.61.204 6 6 15115 20160607160104
95.108.133.215 1 1 7009 20160621045642
78.156.234.163 2 2 6751 20160613182831
176.15.55.83 5 5 83787 20160615173539
176.97.188.7 1233 1235 5163583 20160630085317
95.153.129.72 4 4 49672 20160623083008
91.226.143.156 1 1 7050 20160602122910
185.3.33.8 7 7 35238 20160608180644
91.205.49.209 1 1 7092 20160602175459
95.153.130.211 3 3 21926 20160618124421
176.122.56.74 8 8 57665 20160627172030
176.122.63.9 1 1 6638 20160611162746
85.26.186.251 15 15 51474 20160606153109
176.122.62.127 35 35 304199 20160617135330
95.153.133.77 3 3 49227 20160614210004
217.118.81.18 1 1 6769 20160621075148
95.26.71.112 10 10 150031 20160619034246
37.110.110.188 6 6 85059 20160619034250
66.102.6.230 1 1 496558 20160602110828
62.182.203.160 10 10 119306 20160629145128
193.33.241.239 14 14 54426 20160609034946
217.118.81.29 6 6 35586 20160627135638
192.162.215.33 136 136 1456240 20160630222033
85.26.186.33 4 4 50371 20160630111335
95.25.215.117 1 1 15395 20160605004554
37.110.152.103 2 2 127284 20160612061335
185.26.180.177 10 10 107336 20160623182237
217.23.64.122 1 1 11784 20160602154351
95.153.131.2 7 7 65408 20160630171906
195.189.120.19 7 7 53966 20160616163525
199.19.249.196 3 3 419502 20160624012409
81.163.56.131 0 2 172300 
81.163.74.131 1 1 7092 20160602112507
95.153.134.189 4 4 50362 20160623135851
95.24.61.76 2 2 117772 20160612093211
176.122.56.137 1 1 7091 20160608182242
2.92.144.239 4 4 98936 20160616151807
85.26.183.181 4 4 27395 20160605141608
185.3.34.58 4 4 50117 20160629142537
91.226.140.56 6 6 51941 20160629171954
185.3.32.131 4 4 49540 20160623201500
83.234.144.245 26 26 80738 20160626165110
95.221.234.115 5 5 98216 20160629222432
185.3.33.121 5 5 50312 20160628220930
85.115.248.224 16 16 74603 20160611160708
185.3.34.30 3 3 12523 20160604000813
185.23.65.44 4 4 24541 20160605211950
217.118.81.216 5 5 50393 20160626174000
95.213.218.51 9 9 38074 20160610131559
95.153.132.71 1 1 6185 20160617023111
66.249.92.104 1 1 14290 20160602103053
85.115.248.132 12 12 87621 20160615180307
91.226.143.74 5 5 50292 20160623210334
95.153.131.20 1 1 6665 20160603202201
37.146.176.193 1 1 11782 20160605004555
212.22.86.152 39 39 439035 20160626092251
217.118.81.249 8 8 100480 20160627102219
128.68.3.31 2 2 63405 20160612063857
185.23.66.3 1 1 6138 20160611235541
185.3.33.91 5 5 70746 20160615135935
95.153.132.82 5 5 59344 20160627212658
109.172.58.93 3 3 31043 20160604131549
176.122.51.131 5 5 101213 20160624125006
95.153.131.115 5 5 49629 20160619230546
185.3.33.24 2 2 12230 20160611222158
95.28.76.189 1 1 29763 20160612082225
217.118.81.231 37 37 106088 20160621051642
83.149.44.245 1 1 6785 20160628185309
95.153.135.161 13 13 32829 20160613170952
54.191.35.15 1 1 12238 20160628045036
188.255.15.69 1 1 27211 20160605164520
109.205.165.195 0 1 148760 
176.77.104.235 1 1 20 20160627015132
178.206.121.125 2 2 20566 20160611201818
2001:41d0:b:b25:: 1 1 8900 20160608161635
62.182.200.204 13 13 76122 20160629134016
217.118.81.26 3 3 50294 20160614225351
82.145.222.53 15 15 122078 20160618021603
93.171.203.15 1 1 40582 20160621201824
128.68.29.40 6 6 179261 20160627015137
62.182.205.136 2 2 54413 20160602194124
176.113.121.14 1 1 6877 20160601210536
176.60.202.120 1 1 7092 20160602191940
37.144.88.191 7 7 76387 20160615173451
2a01:4f8:b0:b54d::2 25 25 1037271 20160623091608
66.102.8.179 5 5 797703 20160630162954
185.3.33.46 47 47 350488 20160618203127
46.42.174.53 5 5 95665 20160616110409
185.3.33.235 1 1 5584 20160605192507
91.226.142.43 13 13 88571 20160627173214
94.204.213.212 4 4 51312 20160619172834
95.213.218.34 4 4 50173 20160627123433
95.25.222.215 5 5 95789 20160620010326
217.118.81.203 8 8 36418 20160612234132
95.159.149.63 1 1 7587 20160630004550
185.3.32.235 41 41 99730 20160629124259
217.118.81.243 14 14 121215 20160628101540
185.79.102.141 5 5 84363 20160623215200
188.68.96.155 11 11 232183 20160623130559
37.142.20.12 1 1 7092 20160602124122
109.172.127.41 9 9 103875 20160614223552
31.173.85.247 9 9 52552 20160630122957
91.226.142.158 4 4 50372 20160628194020
91.226.140.5 20 20 309826 20160628114022
78.156.234.129 8 8 84902 20160614112116
195.208.147.130 1 1 9235 20160616090118
185.3.32.226 3 3 19573 20160627053333
176.113.127.2 5 5 95396 20160629153801
95.153.132.249 31 31 59151 20160603122216
185.17.135.175 1 1 6782 20160629225803
212.22.86.231 15 15 256947 20160618174236
212.248.30.69 5 5 96878 20160624012411
95.26.23.172 1 1 9426 20160605004554
78.156.234.153 11 11 130677 20160622165415
185.3.33.99 5 5 50329 20160623181306
176.120.208.247 3 3 49302 20160615133725
176.122.51.176 8 8 41253 20160605104219
46.226.66.154 70 70 385208 20160615210826
213.87.149.29 6 6 56498 20160623170408
95.27.44.211 1 1 7182 20160607042952
185.34.22.52 65 65 76213 20160620092647
85.26.186.78 4 4 50357 20160616183227
176.113.125.106 7 7 45580 20160608161524
176.113.126.242 5 5 49561 20160628210839
85.26.186.5 2 2 7264 20160601161712
176.113.124.254 1 1 7059 20160610191400
185.3.33.155 3 3 49131 20160614203503
66.102.9.112 40 40 388251 20160628184758
66.249.91.225 1 1 27249 20160630163008
95.24.59.167 1 1 25270 20160613224343
176.113.121.153 4 4 50299 20160616193619
94.19.164.2 34 34 1601855 20160602212050
2a03:b0c0:3:d0::3a2:9001 1 1 40582 20160619172834
95.153.128.78 5 5 96858 20160617080803
95.153.131.62 1 1 6665 20160608074929
66.249.93.94 4 4 51120 20160621201825
185.3.33.182 5 5 21415 20160613141300
109.70.185.155 0 2 172300 
94.76.102.23 1 1 6257 20160602211724
94.180.147.61 1 1 11784 20160605164520
5.3.150.219 4 4 39495 20160612082225
188.0.188.209 8 8 76305 20160615230743
95.213.218.76 5 5 56480 20160623194658
176.120.211.221 11 11 87600 20160620133708
54.244.49.214 3 3 55142 20160619153208
46.188.24.199 4 4 50071 20160616151810
185.3.34.91 1 1 6229 20160611021433
88.112.202.89 1 1 7092 20160607122044
176.113.126.238 6 6 62833 20160615123748
78.156.234.189 1 1 7092 20160602183342
176.77.33.36 6 6 167585 20160627024821
95.221.195.9 7 7 76415 20160626235739
93.171.202.244 1 1 10681 20160621201825
107.167.110.12 1 1 25897 20160627184148
37.112.231.10 1 1 28024 20160603080723
78.152.161.14 1 1 7092 20160602180141
37.146.102.129 3 3 11625 20160603145239
89.147.201.14 1 1 7092 20160602133922
52.33.85.9 3 3 54360 20160623135810
188.162.166.3 1 1 6960 20160612183335
109.172.127.26 14 14 78987 20160608221659
188.162.166.135 1 1 6231 20160613210500
31.41.189.2 1 1 27207 20160606185549
81.163.35.120 224 225 2256498 20160630172111
78.156.234.136 10 10 76470 20160625114157
176.77.77.227 2 2 102695 20160612061347
178.140.231.7 3 3 11517 20160612063911
176.113.121.238 22 22 327480 20160615154532
62.182.204.156 28 28 315975 20160628210235
95.153.135.103 4 4 9060 20160608123000
178.140.238.139 5 5 102117 20160630072424
5.164.66.20 6 6 193117 20160629172121
85.26.183.172 6 6 63681 20160623180641
95.153.133.2 67 67 146536 20160619222745
95.221.223.152 6 6 166716 20160629172134
95.220.169.244 6 6 191005 20160629172140
62.182.202.228 2 2 13846 20160608140531
185.3.33.7 2 2 12794 20160604095105
188.0.189.131 8 8 76305 20160614222102
109.172.59.10 19 19 78880 20160613180603
176.115.121.45 8 8 54270 20160629220741
176.122.51.249 13 13 218064 20160628105758
176.113.124.148 12 12 84284 20160620114851
141.0.12.142 3 3 90855 20160623124818
168.235.194.125 1 1 6665 20160608211035
176.122.62.215 1 1 7091 20160604150218
78.156.234.142 7 7 34025 20160613041859
217.118.81.242 7 7 72387 20160626104433
95.153.135.202 10 10 55272 20160618154108
109.172.59.170 4 4 11094 20160604135825
95.153.134.145 12 12 73592 20160625114919
91.226.141.125 4 4 86322 20160602112720
85.26.183.136 14 14 97937 20160627035610
95.153.131.32 6 6 29624 20160604174343
95.153.129.86 4 4 50174 20160622215652
185.3.32.236 2 2 13330 20160606192011
212.22.86.190 1 1 7093 20160605105128
217.118.81.19 1 1 6755 20160606125201
185.3.34.248 6 6 51496 20160624154132
185.3.32.24 10 10 46532 20160605090428
66.249.92.97 1 1 31008 20160602110806
77.37.137.108 1 1 27167 20160611130638
37.204.107.179 4 4 50436 20160627115346
95.153.134.18 6 6 56919 20160615181313
46.188.89.26 1 1 7026 20160607042951
85.26.186.214 3 3 10043 20160613152122
79.165.160.192 5 5 75029 20160626235415
91.226.141.3 1 1 21 20160629200037
188.110.49.129 1 1 7092 20160602114016
37.204.54.243 10 10 150074 20160626235446
85.26.186.161 14 14 82363 20160626222701
95.153.133.187 3 3 7759 20160604110258
185.3.34.206 4 4 2560 20160625180635
176.113.121.91 75 75 21229 20160607180054
176.77.116.100 1 1 27207 20160608210219
66.102.6.187 9 9 277623 20160630163115
141.0.12.129 3 3 47533 20160629192225
82.145.220.252 8 8 59723 20160617220553
54.206.141.121 1 1 31008 20160602111802
66.102.6.234 1 1 496558 20160602110742
95.221.220.224 2 2 20166 20160612063932
95.24.174.122 74 74 948532 20160630214858
176.113.120.97 1 1 6257 20160608210704
176.77.120.243 1 1 8575 20160605004554
93.81.83.231 5 5 99100 20160630072428
54.191.47.251 1 1 12576 20160608132422
185.3.34.126 1 1 7301 20160607164506
95.153.131.122 8 8 57416 20160624120430
185.3.32.101 12 12 32763 20160604192925
176.110.129.10 5 5 95665 20160621114335
78.56.16.165 1 1 7092 20160602195124
109.172.127.108 229 229 147589 20160613182254
217.118.81.233 17 17 94412 20160620130042
82.145.220.234 5 5 50392 20160629180804
88.212.236.116 6 6 70160 20160618012607
176.15.101.169 2 2 103644 20160612093136
66.102.9.92 32 32 259190 20160628184725
212.22.86.226 1 1 28948 20160611104111
176.113.124.249 6 6 58397 20160630005657
217.118.81.28 6 6 71370 20160615101816
95.153.129.105 26 26 135545 20160612212812
176.97.174.62 2 2 6660 20160614103634
62.182.205.234 11 11 119940 20160620005513
176.113.120.127 11 11 212411 20160628120138
217.118.81.228 10 10 73535 20160615200014
92.53.115.234 1 1 0 20160610114145
188.162.166.28 5 5 50399 20160626133441
95.153.131.24 6 6 51064 20160618124758
185.26.180.75 7 7 62066 20160629000954
176.115.124.66 756 756 859069 20160625143610
37.146.111.38 1 1 27211 20160608162403
91.63.251.20 1 1 7092 20160602135819
176.101.242.217 6 6 56130 20160623133645
176.113.120.15 1 1 6755 20160605222518
95.153.134.171 22 22 109106 20160616004328
62.182.204.43 23 23 81815 20160619162219
188.162.166.136 2 2 6252 20160613210529
176.113.122.116 30 30 168547 20160625234050
46.242.115.210 5 5 74809 20160630135125
176.122.60.107 128 128 328563 20160615093231
176.122.60.28 4 4 13895 20160601144130
95.213.218.44 2 2 6693 20160614002345
109.172.127.24 1 1 30953 20160611192503
95.153.128.168 6 6 63202 20160627092539
178.140.184.31 4 4 51129 20160627115348
176.122.51.167 10 10 72427 20160623152803
185.3.33.170 5 5 56529 20160618031622
176.15.108.135 5 5 74385 20160630072412
54.152.85.249 2 2 112 20160613083248
91.78.222.207 2 2 39613 20160613232838
95.26.43.35 9 9 39599 20160608091725
185.3.35.52 8 8 20667 20160605171429
217.118.81.210 6 6 51796 20160629103351
85.132.63.162 1 1 7093 20160605155737
188.244.43.200 4 4 85948 20160627115348
95.26.101.232 6 6 167297 20160629172133
66.249.93.83 5 5 74621 20160621201825
185.3.34.50 2 2 6301 20160604085724
176.122.51.226 7 7 64525 20160627113614
217.118.81.199 10 10 41031 20160612122821
176.113.126.236 72 72 563913 20160629132806
176.77.33.30 5 5 102025 20160626235732
188.32.244.196 1 1 24328 20160613230718
217.118.81.196 9 9 65164 20160617125826
141.0.12.128 1 1 28990 20160605203801
62.182.205.51 1 1 7093 20160606174832
176.115.122.117 8 8 76305 20160622114401
176.122.51.197 28 28 213507 20160626181727
185.3.35.76 5 5 22288 20160606195008
176.122.51.206 5 5 20377 20160604073912
217.118.81.25 4 4 50378 20160626121542
85.26.186.15 4 4 50257 20160617202428
66.102.9.102 24 24 150411 20160628184801
217.118.81.30 36 36 264112 20160630121536
95.153.130.67 6 6 40015 20160613164022
85.26.186.162 4 4 49752 20160627084034
91.240.120.20 1 1 6257 20160607090720
88.244.250.138 2 2 14184 20160607152755
176.77.70.191 5 5 75661 20160619034227
185.34.22.25 6 6 9185 20160621091002
109.65.109.88 1 1 6257 20160604074325
93.125.109.136 2 2 20350 20160628174522
176.122.51.245 22 22 88457 20160630225743
212.22.86.81 5 5 74812 20160625141627
185.23.64.1 4 4 10854 20160611170847
95.213.218.31 4 4 16214 20160611142541
83.234.144.66 6 6 51694 20160615165600
95.153.134.75 25 25 280805 20160621102239
85.26.186.109 23 23 66672 20160613235126
194.190.9.90 35 35 154715 20160621202032
95.153.132.253 7 7 59676 20160630191517
217.118.81.206 7 7 25715 20160605153307
66.102.6.184 6 6 547590 20160630163115
95.27.62.0 5 5 99096 20160630135129
176.113.121.87 9 9 38893 20160613031738
217.118.81.227 6 6 56949 20160621011551
109.172.59.191 23 23 82012 20160630161429
95.153.131.30 4 4 49999 20160629184249
91.205.128.13 8 8 61202 20160630232311
185.3.35.60 4 4 49524 20160623092818
37.204.40.93 1 1 9429 20160605164457
95.153.129.87 11 11 13974 20160613184828
81.163.61.19 40 40 353402 20160630234457
85.26.183.26 5 5 63909 20160614174734
197.48.120.229 1 1 6257 20160603010635
217.118.81.221 4 4 49999 20160627151123
217.118.81.251 5 5 18098 20160604122014
185.3.33.29 29 29 34128 20160611181620
2a03:b0c0:2:d0::364:1 1 1 397429 20160619172834
37.110.70.90 1 1 11739 20160612082224
176.122.51.180 32 32 144146 20160616124852
31.173.81.190 0 1 690 
176.77.54.116 6 6 165370 20160627015134
85.26.183.39 8 8 36057 20160610182823
2.92.131.115 5 5 73466 20160627015855
95.153.135.53 5 5 50218 20160617152012
188.162.166.6 5 5 30660 20160612232834
130.180.210.122 1 1 22122 20160613194405
66.102.8.189 5 5 388497 20160630162954
188.32.128.49 9 9 212154 20160627015129
128.71.216.87 12 12 132151 20160602014041
52.29.26.11 2 2 21809 20160612154649
85.26.183.171 16 16 113145 20160623132929
176.115.124.157 1283 1283 2165988 20160626172307
192.162.214.97 156 156 1349227 20160630214058
193.33.241.242 8 8 76282 20160630185716
212.22.86.87 10 10 87601 20160620215256
54.244.48.43 3 3 80868 20160615101813
176.14.96.254 1 1 7211 20160607042951
176.113.123.95 20 20 216507 20160629124454
185.34.21.23 6 6 17220 20160608134353
109.172.127.61 2 2 14186 20160604140650
31.173.81.113 1 1 6639 20160613153921
192.241.217.167 1 1 14289 20160602112102
66.102.8.184 4 4 253187 20160630162955
176.113.126.237 99 99 821858 20160630181707
217.118.81.22 46 46 205750 20160628122754
192.162.215.180 8 8 33758 20160623194909
46.188.42.117 7 7 76387 20160615173545
176.113.126.239 13 13 88260 20160628113029
66.102.6.226 1 1 29536 20160602110828
217.118.81.197 1 1 6900 20160628163542
78.156.234.145 8 8 56916 20160617215723
198.199.84.198 2 2 122912 20160602112255
95.153.130.164 6 6 51954 20160627145417
66.249.88.174 2 2 43941 20160613150921
185.34.22.65 888 888 2828500 20160605100429
128.72.203.28 51 51 572110 20160622205529
176.98.149.214 4 4 50484 20160618161707
85.26.186.235 8 8 100867 20160626165001
81.163.57.204 0 11 1385920 
149.50.92.105 4 4 50586 20160617175336
185.3.34.165 10 10 62937 20160624154158
83.234.144.243 17 17 11638 20160628184742
83.234.144.43 55 55 152896 20160619161210
85.26.186.17 1 1 6869 20160605172001
78.106.4.5 50 50 261124 20160624190529
185.3.33.165 2 2 6658 20160610174116
81.163.56.52 0 1 23540 
54.90.13.230 1 1 12220 20160619035232
5.254.65.218 123 123 649051 20160615000245
77.37.215.222 1 1 7093 20160605110803
95.153.131.228 3 3 47253 20160625183957
95.213.218.67 4 4 50912 20160616191709
5.228.190.73 4 4 51130 20160616151810
80.83.224.20 4 4 43235 20160630004602
46.188.72.105 1 1 20 20160627015854
109.252.142.19 4 4 50945 20160627115348
62.182.204.55 783 783 1373475 20160623200319
2.134.86.31 1 1 7092 20160607102402
192.162.213.203 10 10 34791 20160613125615
185.79.102.76 13 13 340423 20160621141220
5.228.134.158 5 5 75019 20160630135121
176.113.122.150 7 7 76396 20160620202321
185.59.246.239 17 17 165914 20160621015348
185.3.34.168 13 13 52805 20160629132122
176.115.124.212 150 150 257872 20160602161125
188.162.166.5 7 7 23033 20160612130350
93.171.202.239 7 7 76396 20160621201825
185.3.33.72 1 1 6876 20160601180034
95.26.101.21 7 7 76387 20160615183234
176.77.83.94 5 5 74406 20160630072425
185.17.135.12 1 1 6730 20160613161221
109.172.62.42 0 1 148760 
62.182.204.34 20 20 225674 20160619053542
95.153.129.193 6 6 55813 20160624201457
46.16.230.68 10 10 118474 20160620100524
217.118.81.208 20 20 95085 20160614181323
176.122.51.196 7 7 28928 20160608125018
193.34.173.226 1 1 7092 20160602121045
176.122.62.56 5 5 19550 20160608213046
37.145.2.18 7 7 76387 20160619034227
66.249.91.229 1 1 27515 20160630162240
95.153.135.73 11 11 49603 20160608161636
176.122.51.205 6 6 55871 20160619225222
62.182.204.18 8 8 39564 20160604095529
217.118.81.230 14 14 124091 20160626213049
176.122.51.130 13 13 43375 20160608173952
176.115.124.222 353 353 1099603 20160624235717
151.65.243.68 1 1 7092 20160602123043
2602:306:8bd4:61d0:68bc:a96c:203b:c2ff 1 1 7092 20160603140128
217.118.81.17 6 6 57207 20160627121858
109.173.59.185 15 15 282852 20160627015854
END_VISITOR

# Date - Pages - Hits - Bandwidth - Visits
BEGIN_DAY 30
20160601 2970 2970 8169067 28
20160602 4820 4820 8587235 61
20160603 6503 6503 14627528 30
20160604 1578 1578 5475044 40
20160605 5957 5957 9302294 43
20160606 3220 3220 6352557 22
20160607 3521 3521 11021498 22
20160608 645 645 1968318 33
20160609 20 20 2850469 2
20160610 975 975 2914602 19
20160611 1341 1341 5653321 36
20160612 1559 1559 7242563 50
20160613 2634 2634 8781416 46
20160614 1180 1180 8385396 35
20160615 1418 1418 5356027 39
20160616 677 678 4430953 30
20160617 1922 1922 5127312 24
20160618 1340 1340 3368466 21
20160619 2143 2143 7392988 30
20160620 2380 2380 6763650 19
20160621 1033 1033 2683576 27
20160622 1534 1534 3962513 15
20160623 1294 1294 4055191 42
20160624 531 531 3331624 28
20160625 1158 1158 2680477 19
20160626 1632 1632 4493323 26
20160627 799 799 4423802 45
20160628 615 615 4124510 32
20160629 963 963 5218311 42
20160630 682 682 7061182 51
END_DAY

# Session range - Number of visits
BEGIN_SESSION 7
1h+ 63
5mn-15mn 72
30s-2mn 114
15mn-30mn 32
2mn-5mn 75
0s-30s 580
30mn-1h 21
END_SESSION

# URL - Pages - Bandwidth - Entry - Exit
# The 10 first Pages must be first (order not required for others)
BEGIN_SIDER 1054
/admin/partner/chackOrders 11560 920668 5 12
/site/checkNewOrders 11556 1521166 2 11
/admin/order 5521 51716103 31 7
/admin/partner/id/0/overdueOrders 4201 88221 1 0
/admin/partner/id/0/checkNewOrderForMusik 4199 88179 0 1
/cart/basket 2564 499539 1 32
/cart/add 2089 46057 4 0
/min/serve 1989 27416642 15 163
/ds-comf/ds-form/formtpl.php 1382 501666 1 36
/ 994 10905438 279 89
/admin/partner/id/111/update/product/7082 1 4456 0 0
/admin/order/id/36011/view 1 5171 0 0
/admin/partner/id/46/menu/52 1 6957 0 0
/restorany/ajaxGoods/id/1240 5 10017 1 0
/admin/order/id/35631/view 2 10254 0 0
/restorany/ajaxGoods/id/1282 8 7576 1 0
/partner/menu/updateproduct/15415 2 19504 0 0
/partner/orders/id/33946/changeStatus 2 40 0 1
/restorany/ajaxGoods/id/770 1 1325 0 0
/restorany/ajaxGoods/id/1295 2 1918 0 0
/awstats/ 1 534 1 0
/admin/partner/id/98/info 1 7043 0 0
/admin/partner/id/109/menu 6 32423 0 0
/site/getUserRecvizit/35891 1 1822 0 0
/admin/order/id/35587/changeStatus 1 20 0 0
/admin/order/id/35589/changeStatus 1 20 0 0
/site/getUserRecvizit/34064 1 1820 0 0
/site/getUserRecvizit/34898 1 1942 0 0
/admin/order/id/34969/view 2 10226 0 0
/admin/partner/id/145/menu 4 23272 0 0
/admin/order/id/35516/view 1 5029 0 0
/restorany/prival-chayhana-kafe 10 208703 0 0
/admin/order/id/35353/changeStatus 2 40 0 0
/admin/order/id/34911/view 1 4999 0 0
/admin/order/id/34246/changeStatus 1 20 0 0
/site/getPartnerRecvizit/34313 1 1410 0 0
/partner/menu/1837 18 79382 0 0
/admin/partner/id/5533/changePublication 1 32 0 0
/font/pfdindisplayproregular-webfont.woff 5 133160 0 0
/partner/menu/updateproduct/15319 3 29147 0 0
/admin/partner/id/109/menu/943 10 62892 0 0
/admin/partner/id/179/menu 2 11187 0 0
/partner/orders/33946 2 11523 1 0
/partner/menu/updateproduct/15346 1 9701 0 0
/admin/order/id/35062/changeStatus 1 20 0 0
/admin/order/id/34802/view 1 4973 0 0
/restorany/ajaxGoods/id/1300 4 2525 0 1
/site/allRest 101 1980 3 0
/admin/order/id/35575/changeStatus 1 20 0 0
/restorany/ajaxGoods/id/1253 12 22068 0 4
/partner/menu/updateproduct/15381 1 9796 0 0
/site/getUserRecvizit/35781 1 2568 0 0
/partner/menu/id/192/ajaxAddMenuCatalog 11 220 0 0
/partner/menu/updateproduct/15370 2 19504 0 0
/admin/partner/id/52/menu/1924 2 13656 0 0
/site/getUserRecvizit/34105 1 1820 0 0
/admin/order/id/34695/view 2 10282 0 0
/partner/menu/updateproduct/15315 3 29129 0 0
/admin/partner/id/140/info 1 6868 0 0
/partner/menu/updateproduct/15436 1 9864 0 0
/admin/order/id/35252/view 1 5123 0 0
/admin/partner/id/100/menu/1888 1 6061 0 0
/site/getUserRecvizit/35090 1 2255 0 0
/admin/partner/id/161/update/menu/1604 1 3595 0 0
/site/getUserRecvizit/34827 2 3800 0 0
/admin/order/id/35073/changeStatus 1 20 0 0
/admin/order/id/34327/view 1 5068 0 0
/admin/order/id/35342/view 2 10172 0 0
/admin/order/index 508 4794421 0 1
/restorany/ajaxGoods/id/1838 4 3840 0 0
/partner/menu/updateproduct/15320 3 29223 0 0
/admin/order/id/35349/changeStatus 1 20 0 0
/restorany/ajaxGoods/id/1262 3 2124 0 0
/partner/menu/index 3 13309 0 0
/admin/partner/id/188/menu/1819 2 12482 0 0
/admin/order/id/35346/view 1 5021 0 0
/partner/menu/updateproduct/15409 3 29286 0 0
/site/getUserRecvizit/34101 1 1799 0 0
/admin/order/id/35354/view 2 9978 0 0
/partner/menu/deleteproduct/14988 1 20 0 0
/admin/partner/id/188/menu/1892 1 7348 0 0
/admin/user/id/1707/orders 29 176850 1 0
/admin/order/id/34961/view 1 4956 0 0
/partner/menu/updateproduct/15423 1 9750 0 0
/partner/menu/updateproduct/15350 1 9696 0 0
/admin/order/id/35564/view 1 5211 0 0
/admin/partner/id/188/menu/1905 1 5274 0 0
/site/getUserRecvizit/35896 1 1969 0 0
/admin/order/id/36072/view 3 15496 0 0
/admin/order/id/34902/changeStatus 2 40 0 0
/admin/post 1 3569 0 0
/admin/order/id/34166/view 1 5162 0 0
/admin/order/id/34098/changeStatus 1 20 0 0
/partner/menu/updateproduct/15374 3 29207 0 0
/admin/order/id/35575/view 2 9916 0 0
/partner/menu/deleteproduct/15006 1 20 0 0
/restorany/freshbox 2 26772 0 0
/partner/orders/overdueOrders 492 10332 0 1
/admin/order/id/35579/changeStatus 1 20 0 0
/admin/order/id/34110/view 2 10678 0 0
/admin/order/id/34332/view 1 5330 0 0
/admin/partner/id/5969/changePublication 1 32 0 0
/admin/partner/id/161/sortmenu 4 80 0 0
/admin/partner/id/50/menu/674 1 9506 0 0
/admin/order/id/35264/view 2 10186 0 0
/restorany/smak/info 2 13232 0 1
/admin/partner/id/52/addgoods/761 2 7792 0 0
/partner/menu/updateproduct/15437 2 19712 0 0
/admin/partner/id/188/update/product/15574 1 4589 0 0
/admin/order/id/35354/changeStatus 1 20 0 0
/admin/partner/id/50/menu/656 3 16602 0 0
/admin/order/id/34454/view 1 5044 0 0
/admin/order/id/35586/view 3 15733 0 0
/admin/order/id/35543/view 1 5062 0 0
/partner/menu/1894 10 43167 0 0
/site/openRest 21 420 0 0
/admin/order/id/35419/view 3 15144 0 0
/restorany/ajaxGoods/id/1274 11 12088 0 1
/admin/partner/id/5964/changePublication 1 32 0 0
/admin/partner/id/52/info 2 13982 0 0
/admin/order/id/35637/view 1 5148 0 0
/admin/order/id/34910/view 2 10075 0 0
/admin/order/id/35078/view 1 5090 0 0
/partners 3 30064 1 1
/admin/order/id/35858/view 1 4785 0 0
/partner/menu/updateproduct/15335 2 19455 0 0
/admin/partner/id/192/menu/1897 1 6696 0 0
/partner/menu/deleteproduct/15001 1 20 0 0
/admin/partner/id/109/menu/1874 1 5262 0 0
/restorany/ajaxGoods/id/1393 2 1293 0 0
/admin/order/id/34767/view 1 4974 0 0
/user/registration 2 12097 0 0
/admin/order/id/34093/view 1 5345 0 0
/restorany/edem/review 3 34181 2 1
/site/getUserRecvizit/34256 2 3796 0 0
/admin/partner/id/93/profile 1 4462 0 0
/restorany/dubay/info 7 82457 0 0
/admin/order/id/34969/changeStatus 1 20 0 0
/blog/44 3 19939 2 1
/admin/order/id/35254/changeStatus 1 20 0 0
/admin/order/id/36444/view 1 5033 0 0
/admin/order/id/36440/view 4 20160 0 0
/restorany/dubay/review 7 56926 0 1
/site/getPartnerRecvizit/35537 1 1455 0 0
/restorany/ajaxGoods/id/1260 2 3399 0 0
/site/getUserRecvizit/34077 1 1795 0 0
/admin/order/id/35340/changeStatus 1 20 0 0
/partner/menu/updatemenu/1834 1 2717 0 0
/admin/order/id/36443/changeStatus 1 20 0 0
/site/getPartnerRecvizit/34663 2 2832 0 0
/admin/order/id/34631/view 1 5187 0 0
/site/getUserRecvizit/34841 1 1804 0 0
/admin/partner/id/100/info 1 6967 0 0
/admin/order/id/36183/view 1 5402 0 0
/site/getPartnerRecvizit/36247 1 1457 0 0
/partner/menu/updateproduct/15348 1 9718 0 0
/partner/menu/1835 35 165600 0 0
/site/getUserRecvizit/35893 1 1859 0 0
/partner/menu/updatemenu/1836 1 2714 0 0
/partner/menu/addgoods/1837 5 14765 0 0
/partner/menu/updateproduct/15402 1 9762 0 0
/admin/order/id/34103/view 1 5048 0 0
/admin/order/id/35589/view 4 20256 0 0
/admin/order/id/35060/view 1 5228 0 0
/magaziny 5 40582 1 0
/admin/partner/id/220/menu 5 27440 0 0
/partner/menu/updateproduct/15317 3 29191 0 0
/admin/order/id/34329/changeStatus 1 20 0 0
/cart/deleteProduct 62 5789 0 1
/restorany/gurmaniya 19 440524 0 0
/admin/partner/id/52/menu/766 1 6609 0 0
/restorany/ajaxGoods/id/1296 1 968 0 0
/partner/menu/updateproduct/15410 2 19512 0 0
/site/loginAjax 20 1234 2 0
/admin/order/id/34440/view 1 5218 0 0
/admin/order/id/36161/view 2 10064 0 0
/admin/partner/id/147/menu/1654 1 6037 0 0
/admin/order/id/35545/changeStatus 1 20 0 0
/partner/menu/updateproduct/15430 1 9734 0 0
/partner/menu/updateproduct/15364 2 19500 0 0
/site/getPartnerRecvizit/137 1 1405 0 0
/admin/partner/id/188/addgoods/1766 1 3875 0 0
/partner/menu/updateproduct/15379 1 9737 0 0
/restorany/ajaxGoods/id/1293 16 24012 0 4
/restorany/ajaxGoods/id/768 1 1720 0 1
/restorany/ajaxGoods/id/1280 25 38498 0 6
/admin/user 1 5030 0 0
/admin/partner/id/159/info 1 7074 0 0
/admin/partner/id/1908/changePublicationMenu 1 29 0 0
/admin/order/id/35883/changeStatus 1 20 0 0
/site/getUserRecvizit/34390 1 2449 0 0
/partner/menu 126 542661 2 3
/site/getUserRecvizit/35077 1 1923 0 0
/restorany/kompanii-ragimhanov 2 40553 0 0
/admin/order/id/33846/changeStatus 1 20 0 0
/site/getUserRecvizit/34112 1 1805 0 0
/site/getUserRecvizit/34323 1 1809 0 0
/site/getUserRecvizit/35430 1 1840 0 0
/admin/order/id/35889/view 2 10336 0 0
/admin/partner/id/15657/changePublication 1 32 0 0
/admin/order/id/35578/view 1 5104 0 0
/partner/menu/updateproduct/15322 3 29301 0 0
/restorany/yasir/review 1 10994 0 0
/site/getUserRecvizit/34330 1 1937 0 0
/admin/order/id/35253/view 1 4938 0 0
/restorany/ajaxGoods/id/1259 2 2308 0 0
/site/getPartnerRecvizit/34166 1 1419 0 0
/admin/partner/id/145/info 5 34581 0 0
/partner/menu/updateproduct/15429 1 9774 1 0
/admin/partner/id/170/info 1 6826 0 0
/admin/partner/id/188/menu/1898 2 13569 0 0
/partner/menu/updateproduct/15413 2 19660 0 0
/partner/menu/updateproduct/15330 1 9745 0 0
/admin/order/id/35577/changeStatus 1 20 0 0
/admin/order/id/34664/view 4 20983 0 0
/admin/order/id/35769/view 3 15408 0 0
/admin/partner/id/188/info 16 114308 0 0
/sitemap.xml 2 0 2 2
/admin/order/id/34246/view 1 5057 0 0
/site/getPartnerRecvizit/34316 1 1418 0 0
/admin/order/id/35774/view 2 10288 0 0
/blog/56 1 8934 1 0
/chudu 45 393270 12 6
/restorany/ajaxGoods/id/1276 10 10576 0 1
/admin/partner/id/220/menu/1917 1 5883 0 0
/admin/order/id/35073/view 1 5467 0 0
/admin/partner/id/179/payment 1 24 0 0
/site/getUserRecvizit/34066 1 1911 0 0
/admin/user/id/1391/orders 68 421653 0 0
/admin/partner/id/220/info 1 6745 0 0
/admin/order/id/34329/view 1 5074 0 0
/admin/order/id/34914/view 1 5020 0 0
/admin/order/id/34904/changeStatus 1 20 0 0
/admin/partner/id/110/menu/965 1 6875 0 0
/site/getUserRecvizit/35898 1 1851 0 0
/restorany/take 18 619176 1 0
/admin/order/id/36071/view 4 20153 0 0
/admin/order/id/34451/view 1 5178 0 0
/restorany/linn-home 1 10813 0 0
/admin/partner/id/50/menu/1867 1 6783 0 0
/partner/menu/updateproduct/15337 2 19475 0 0
/restorany/ajaxGoods/id/1245 1 563 0 0
/restorany/ajaxGoods/id/1896 2 4058 0 0
/admin/user/id/1391/orders/35255 1 2987 0 0
/admin/order/id/34901/changeStatus 1 20 0 0
/admin/order/id/34064/view 1 5264 0 0
/restorany/randevu/review 9 87621 0 1
/admin/order/id/35074/view 1 5048 0 0
/partner/menu/updateproduct/15394 1 9805 0 0
/admin/order/id/34912/view 1 5074 0 0
/partner/menu/updateproduct/15439 1 9898 0 0
/admin/order/id/36164/view 2 10114 0 0
/cart/minusProduct 85 7544 0 0
/admin/partner/id/122/info 1 7043 0 0
/magaziny/fermer 3 26887 0 0
/admin/partner/id/63/payment 2 48 0 0
/admin/order/id/35348/view 1 5339 0 0
/admin/order/id/36247/view 2 10122 0 0
/partner/menu/updateproduct/15399 1 9743 0 0
/admin/partner/id/179/addgoods/1891 1 3802 0 0
/admin/partner/id/188/menu/1903 2 12019 0 0
/restorany/ajaxGoods/id/1391 2 1122 0 0
/site/SetCityCookie/4 166 3466 3 38
/admin/order/id/35424/view 1 5281 0 0
/partner/menu/updateproduct/15354 1 9699 0 0
/admin/order/id/35075/view 1 5329 0 0
/admin/order/id/35864/view 1 5087 0 0
/restorany/ajaxGoods/id/1390 2 1116 0 0
/partner/menu/updateproduct/15428 1 9762 0 0
/admin/order/id/34459/changeStatus 1 20 0 0
/partner/menu/updateproduct/15341 1 9701 0 0
/restorany/kosmos/review 6 62188 2 1
/site/getUserRecvizit/34254 2 3626 0 0
/partner/orders/35063 2 6598 0 1
/partner/menu/deleteproduct/15002 1 20 0 0
/site/getPartnerRecvizit/36204 1 1455 0 0
/restorany/ajaxGoods/id/1265 4 6560 0 1
/admin/partner/id/52/menu/1921 2 10532 0 0
/site/getPartnerRecvizit/36253 1 1468 0 0
/restorany/shelkovyy-put/info 1 6649 0 0
/site/getUserRecvizit/34081 1 1985 0 0
/admin/partner/id/192/info 1 6929 0 0
/admin/order/id/35428/view 2 10078 0 0
/partner/menu/updateproduct/15421 1 9776 0 0
/restorany/torino-pizza 19 616163 0 0
/admin/order/id/35879/view 2 10258 0 0
/restorany/kofeynya-restoran--shokolad/info 7 47342 0 1
/admin/order/id/34103/changeStatus 1 20 0 0
/admin/partner/id/111/menu/983 2 13288 0 0
/admin/partner/id/140/profile 1 4442 0 0
/admin/order/id/35430/view 1 5042 0 0
/admin/partner/id/100/menu/1884 1 7496 0 0
/admin/order/id/35786/view 1 5181 0 0
/admin/partner/id/46/info 5 38227 0 0
/admin/order/id/34338/changeStatus 1 20 0 0
/admin/partner/id/87/update/product/14301 1 4455 0 0
/admin/order/id/36170/changeStatus 1 20 0 0
/partner/menu/updateproduct/15307 3 29175 0 0
/admin/partner/id/100/menu/1890 1 6374 0 0
/admin/order/id/35590/changeStatus 1 20 0 0
/partner/statistic/orders 1 3899 0 0
/admin/order/id/35479/view 1 5088 0 0
/partner/orders/34961 2 6462 0 0
/admin/partner/id/46/menu/257 1 5398 0 0
/restorany/italika 3 100771 0 0
/admin/order/id/35787/view 1 5174 0 0
/restorany/ajaxGoods/id/1286 2 1798 0 0
/site/getUserRecvizit/34821 1 1795 0 0
/admin/order/id/34067/changeStatus 1 20 0 0
/admin/order/id/35558/view 1 5523 0 0
/partner/menu/updateproduct/15352 1 9773 0 0
/partner/menu/updateproduct/15387 3 29281 0 0
/admin/order/id/36059/view 1 4741 0 0
/admin/order/id/35568/view 3 15530 0 0
/partner/menu/updateproduct/15418 1 9749 0 0
/admin/partner/id/184/profile 1 4468 0 0
/partner/menu/updateproduct/15366 2 19522 0 0
/admin/order/id/35785/view 1 5136 0 0
/admin/order/id/35566/changeStatus 1 20 0 0
/admin/order/id/35080/view 6 30670 0 0
/admin/order/id/34272/view 1 5048 0 0
/site/getUserRecvizit/35933 1 1971 0 0
/admin/partner/id/161/menu/1872 2 11331 0 0
/restorany/ajaxGoods/id/1247 3 3558 0 0
/admin/order/id/34842/view 1 4974 0 0
/pages/about 9 68816 2 2
/admin/order/id/34907/view 2 10471 0 0
/admin/order/id/34104/view 2 10144 0 0
/restorany/salma 7 108739 0 0
/admin/partner/id/188/menu/1904 1 8974 0 0
/partner/orders/34026 2 11469 0 0
/restorany/kazan-mangal 17 366796 0 0
/admin/order/id/35253/changeStatus 1 20 0 0
/admin/order/id/35782/view 1 5346 0 0
/admin/partner/id/52/menu/768 1 7360 0 0
/partner/menu/updateproduct/15404 1 9749 0 0
/order 20 108565 0 0
/admin/order/id/35631/changeStatus 1 20 0 0
/site/getUserRecvizit/35136 2 3676 0 0
/partner/menu/1833 52 252918 0 1
/restorany/action/cart 628 1348617 0 0
/restorany/ajaxGoods/id/1256 3 1482 0 0
/admin/partner/id/188/menu/1847 2 10612 0 0
/restorany/ajaxGoods/id/1291 7 7955 0 2
/admin/order/id/34313/view 4 20112 0 0
/admin/order/id/35506/view 1 5161 0 0
/partner/menu/sortgoods 4 80 0 0
/admin/section/create 4 11340 0 1
/site/getUserRecvizit/35902 1 1843 0 0
/site/getUserRecvizit/35094 2 3646 0 0
/partner/menu/updateproduct/15338 3 29234 0 0
/restorany/milkicake 1 14362 0 0
/admin/order/id/34070/view 1 5128 0 0
/partner/menu/updateproduct/15383 1 9803 0 0
/admin/order/id/34464/changeStatus 1 20 0 0
/pages/contacts 11 61301 0 4
/partner/orders/id/33894/changeStatus 1 20 0 0
/partner/menu/updateproduct/15357 1 9770 1 0
/partner/menu/addgoods/1836 19 55974 0 0
/admin/partner/id/147/menu/1581 1 6983 0 0
/partner/menu/updateproduct/15388 2 19470 0 0
/partner/menu/updateproduct/15329 2 19469 0 0
/site/getUserRecvizit/34911 2 3632 0 0
/partner/orders/34080 1 5726 0 1
/admin/partner 137 841631 1 2
/admin/partner/id/50/menu/679 1 9256 0 0
/admin/order/id/35669/view 1 5226 0 0
/admin/partner/id/145/menu/1381 1 6891 0 0
/admin/order/id/36171/changeStatus 1 20 0 0
/partner/menu/updateproduct/15333 1 9737 0 0
/admin/partner/UpdateAjax 68 1360 0 0
/restorany/presto 48 1448923 1 1
/admin/order/id/34328/view 1 5069 0 0
/admin/section/ 3 14391 0 0
/admin/order/id/36253/view 1 5237 0 0
/site/getUserRecvizit/34116 1 1789 0 0
/admin/order/id/34542/view 1 4877 0 0
/partner/menu/updateproduct/15396 1 9744 0 0
/restorany/ajaxGoods/id/1388 2 1510 0 0
/admin/partner/id/188/menu/1767 2 13227 0 0
/admin/order/id/34066/view 1 5096 0 0
/order/checkphone 787 17440 0 0
/site/getUserRecvizit/34816 3 5382 0 0
/admin/order/id/35432/changeStatus 1 20 0 0
/admin/partner/id/1606/changePublicationMenu 1 31 0 0
/admin/partner/id/105/info 3 24464 0 0
/admin/partner/id/87/update/product/14306 1 4467 0 0
/admin/partner/id/137/profile 1 4484 0 0
/admin/order/id/34686/view 1 5019 0 0
/restorany/gambit 46 2170655 0 1
/admin/order/id/35461/changeStatus 1 20 0 0
/admin/partner/id/50/menu/670 7 39942 0 0
/partner/menu/updateproduct/15325 2 19519 0 0
/site/getUserRecvizit/36041 1 1857 0 0
/admin/order/id/33848/changeStatus 1 20 0 0
/restorany/konditerskaya-la-creme 4 79575 0 0
/admin/order/id/34062/view 1 5594 0 0
/admin/partner/id/45/info 2 13890 0 0
/admin/partner/id/147/menu/1402 1 6055 0 0
/admin/order/id/34907/changeStatus 1 20 0 0
/admin/order/id/36181/changeStatus 1 20 0 0
/admin/partner/id/147/info 4 27654 0 0
/admin/partner/id/109/menu/946 4 25651 0 0
/restorany/ajaxGoods/id/1278 17 21363 1 3
/partner/menu/updateproduct/15391 1 9740 0 0
/admin/order/id/35781/view 1 5146 0 0
/restorany/ajaxGoods/id/1284 10 10690 0 3
/site/getUserRecvizit/35779 1 1929 0 0
/admin/partner/id/188/addgoods/1900 1 3886 0 0
/admin/order/id/35067/view 1 4611 0 0
/admin/order/id/33846/view 1 5069 0 0
/admin/order/id/35553/view 1 4943 0 0
/site/getUserRecvizit/34899 1 1940 0 0
/cart/deleteAllProduct 2 42 0 1
/partner/menu/updateproduct/15343 1 9710 0 0
/partner/orders/id/34026/changeStatus 2 40 0 0
/partner/menu/addgoods/1896 16 47104 0 0
/partner/menu/updateproduct/15401 1 9770 0 0
/admin/order/id/35593/changeStatus 1 20 0 0
/admin/order/id/34913/view 2 10028 0 0
/admin/partner/id/46/menu 2 10995 0 0
/admin/order/id/36087/view 1 4734 0 0
/admin/order/id/34313/changeStatus 2 40 0 0
/site/getUserRecvizit/35074 1 1841 0 0
/admin/order/id/35337/view 1 4718 0 0
/partner/menu/deleteproduct/15004 1 20 0 0
/restorany/snack-master 22 459334 1 0
/site/getUserRecvizit/36045 1 1829 0 0
/blog/33 2 16952 2 0
/restorany/ajaxGoods/id/1249 1 703 0 0
/admin/order/id/34631/changeStatus 1 20 0 0
/admin/partner/id/111/info 2 16146 0 0
/site/getUserRecvizit/34333 1 1784 0 0
/SetCityCookie/1 83 1743 3 42
/admin/order/id/34081/view 1 5129 0 0
/font/Proxima%20Nova%20Semibold.otf 78 7168512 0 13
/site/getUserRecvizit/35767 1 1867 0 0
/site/getUserRecvizit/34900 1 1807 0 0
/partner/menu/deleteproduct/15007 1 20 0 0
/partner/menu/updateproduct/15372 2 19522 0 0
/admin/partner/id/109/info 5 41291 0 0
/admin/statistics/orders2 4 13834 0 0
/partner/menu/updateproduct/15313 3 29165 0 0
/admin/order/id/35537/view 1 5086 0 0
/admin/partner/id/110/menu 1 5315 0 0
/partner/menu/addgoods/1899 8 23904 0 0
/admin/partner/id/45/profile 1 4492 0 0
/partner/menu/updateproduct/15327 1 9708 0 0
/site/getUserRecvizit/35505 1 1871 0 0
/site/getUserRecvizit/35423 1 1827 0 0
/admin/partner/id/188/menu/1839 1 8568 0 0
/site/getUserRecvizit/34130 1 1877 0 0
/admin/order/id/35476/view 1 5281 0 0
/admin/order/id/35262/view 2 10190 0 0
/partner/menu/updateproduct/15416 1 9783 0 0
/admin/partner/id/161/update/product/12892 3 13144 0 0
/admin/partner/id/161/ajaxAddMenuCatalog 2 40 0 0
/admin/order/id/35890/view 1 5236 0 0
/restorany/ajaxGoods/id/1255 6 8130 0 1
/admin/order/id/36247/changeStatus 1 20 0 0
/restorany 407 4352882 21 25
/admin/order/id/36172/view 1 5306 0 0
/restorany/yasir 14 257377 0 0
/restorany/smak 4 30035 3 1
/site/getUserRecvizit/34087 1 1800 0 0
/partner/menu/updateproduct/15308 3 29199 0 0
/admin/partner/id/52/menu/762 1 6250 0 0
/admin/partner/id/109/profile 1 4509 0 0
/partner/menu/updateproduct/15376 2 19474 0 0
/admin/partner/id/220/menu/1909 1 6250 0 0
/admin/partner/id/1892/changePublicationMenu 1 29 0 0
/restorany/nostalgie 3 85188 0 0
/admin/partner/id/188/menu/1907 1 6325 0 0
/site/getUserRecvizit/35092 2 3970 0 0
/cart/mobileBasket 142 4207 0 2
/site/getUserRecvizit/34259 1 1829 0 0
/admin/partner/id/154/info 1 6851 0 0
/restorany/ajaxGoods/id/1835 2 2893 0 0
/partner/menu/updateproduct/15385 1 9814 0 0
/admin/order/id/30884/view 1 4712 0 0
/partner/menu/deleteproduct/14999 1 20 0 0
/site/getUserRecvizit/34132 1 1823 0 0
/restorany/mangal 21 463692 1 1
/admin/partner/id/52/menu 10 55592 0 0
/restorany/ajaxGoods/id/1251 14 11492 0 2
/admin/partner/id/179/info 6 42183 0 0
/restorany/ajaxGoods/id/1271 1 493 0 0
/restorany/randevu/info 11 73855 0 1
/restorany/dostavka-vody-rosa 8 118299 2 2
/admin/partner/id/5967/changePublication 1 32 0 0
/partner/menu/1838 35 161914 0 0
/admin/order/id/35457/changeStatus 1 20 0 0
/admin/partner/id/184/menu/1758 1 6484 0 0
/restorany/arigato 18 478291 0 0
/restorany/london-lounge-cafe 10 316363 0 0
/admin/partner/id/192/menu 5 28040 0 0
/site/getUserRecvizit/34079 2 3640 0 0
/partner/menu/updateproduct/15368 3 29377 0 0
/admin/partner/id/161/menu/1604 1 6474 0 0
/admin/order/id/35481/view 1 5270 0 0
/admin/order/id/35557/changeStatus 1 20 0 0
/restorany/ajaxGoods/id/1834 9 6311 0 0
/partner/menu/updateproduct/15425 1 9771 0 0
/admin/order/id/35255/changeStatus 1 20 0 0
/admin/partner/id/220/menu/1913 1 5817 0 0
/admin/partner/id/100/menu/1886 1 6178 0 0
/admin/order/id/35586/changeStatus 1 20 0 0
/admin/order/id/34816/view 1 5095 0 0
/partner/menu/updateproduct/15393 1 9731 0 0
/partner/menu/updateproduct/15406 1 9813 0 0
/admin/order/id/34902/view 1 5127 0 0
/restorany/ajaxGoods/id/1267 7 6660 0 1
/site/getUserRecvizit/34834 1 1810 0 0
/admin/order/id/34905/changeStatus 1 20 0 0
/admin/order/id/34773/view 1 5143 0 0
/partner/menu/updateproduct/15435 3 29597 0 0
/admin/order/id/34990/view 2 11676 0 0
/admin/order/id/36446/view 1 5139 0 0
/admin/partner/id/179/menu/1891 1 5182 0 0
/admin/order/id/34725/view 1 5203 0 0
/admin/order/id/35340/view 1 5022 0 0
/site/getUserRecvizit/35919 1 1961 0 0
/admin/order/id/34990/changeStatus 1 20 0 0
/site/getUserRecvizit/35895 1 1829 0 0
/partner/menu/updateproduct/15345 1 9766 0 0
/partner/menu/addgoods/1833 18 53010 0 0
/admin/order/id/35357/changeStatus 1 20 0 0
/admin/partner/id/50/menu/675 1 8367 0 0
/restorany/el-gusto 11 504461 0 0
/restorany/coffeman 1 12161 1 0
/admin/order/id/35591/view 2 10306 0 0
/restorany/blin-haus 1 19068 0 0
/site/getUserRecvizit/34250 1 1794 0 0
/admin/partner/id/50/menu/663 1 7356 0 0
/site/getUserRecvizit/34097 1 1837 0 0
/admin/order/id/34960/view 2 9952 0 0
/site/getUserRecvizit/34808 1 1938 0 0
/admin/partner/id/192/menu/1895 1 8218 0 0
/site/getPartnerRecvizit/35355 1 1459 0 0
/admin/partner/id/193/info 1 6822 0 0
/site/getPartnerRecvizit/34547 1 1410 0 0
/partner/menu/updateproduct/15424 1 9783 0 0
/admin/partner/id/45/menu/680 1 6041 0 0
/admin/order/id/35076/changeStatus 1 20 0 0
/partner/menu/updateproduct/15351 1 9701 0 0
/admin/partner/id/100/menu 6 33198 0 0
/admin/partner/id/161/menu 11 64782 0 0
/admin/partner/id/188/menu/1908 3 18784 0 0
/admin/order/id/34369/view 2 10142 0 0
/shashlyk 26 201154 7 5
/admin/order/id/36250/view 1 5306 0 0
/admin/order/id/36181/view 2 10690 0 0
/site/getUserRecvizit/36047 1 1911 0 0
/partner/orders/chackOrders 48 3828 1 2
/admin/order/id/35254/view 1 5108 0 0
/products/ajaxCheckSpecsMobile 93 89696 0 18
/admin/statistics/partners 1 5639 0 0
/admin/order/id/35070/view 1 4831 0 0
/admin/order/id/35346/changeStatus 1 20 0 0
/restorany/gazetta 17 656262 2 0
/admin/order/id/34334/view 2 10859 0 0
/admin/order/id/34166/changeStatus 1 20 0 0
/site/getUserRecvizit/34825 1 1906 0 0
/restorany/sushi-smak 2 31162 0 0
/admin/partner/id/123/info 2 14084 0 0
/magaziny/molochnye 1 8964 0 0
/partner/menu/updateproduct/15438 1 9851 0 0
/restorany/ajaxGoods/id/1292 8 13260 0 2
/restorany/ajaxGoods/id/1275 5 3157 0 0
/admin/order/id/35543/changeStatus 1 20 0 0
/admin/partner/id/63/info 2 14110 0 0
/admin/order/id/34446/changeStatus 1 20 0 0
/partner/menu/1899 20 91140 0 0
/site/getUserRecvizit/34063 1 1799 0 0
/admin/partner/id/45/menu/687 1 6450 0 0
/site/getUserRecvizit/35506 1 1855 0 0
/admin/partner/id/100/menu/711 1 6590 0 0
/site/getUserRecvizit/34257 2 3590 0 0
/partner/menu/updateproduct/15334 2 19460 0 0
/site/getUserRecvizit/34817 1 1911 0 0
/admin/order/id/35864/changeStatus 1 20 0 0
/admin/order/id/35342/changeStatus 1 20 0 0
/admin/order/id/34098/view 4 20940 0 0
/site/getUserRecvizit/34143 1 1828 0 0
/site/getUserRecvizit/35769 1 1871 0 0
/admin/order/id/35343/changeStatus 1 20 0 0
/user/activation/activation 3 16829 1 1
/partner/menu/addgoods/1894 1 2936 0 0
/admin/order/id/35010/view 1 4793 0 0
/admin/order/id/35357/view 5 26486 0 0
/partner/orders/id/34942/changeStatus 3 60 1 0
/restorany/yakitori-mahachkala 4 100715 0 0
/admin/partner/id/192/menu/1896 1 7494 0 0
/admin/partner/id/52/menu/1043 2 10700 0 0
/admin/partner/id/15270/changePublication 1 32 0 0
/partner/menu/updateproduct/15408 1 9746 0 0
/restorany/halif 6 110083 0 0
/partner/orders/checkNewOrderForMusik 492 10332 0 0
/site/getUserRecvizit/34089 1 2477 0 0
/site/getUserRecvizit/35912 1 2052 0 0
/admin/order/id/34058/view 1 5011 0 0
/admin/order/id/34390/view 1 5096 0 0
/partner/menu/updateproduct/15412 2 19612 0 0
/admin/partner/id/152/info 1 7043 0 0
/partner/menu/updateproduct/15398 1 9745 0 0
/restorany/ajaxGoods/id/1837 6 5160 0 0
/admin/order/id/34667/view 1 4755 0 0
/admin/partner/id/179/ajaxAddMenuCatalog 1 20 0 0
/restorany/kosmos 99 1319717 18 22
/admin/partner/id/188/sortmenu 1 20 0 0
/restorany/ajaxGoods/id/1241 3 2487 0 0
/SetCityCookie/4 45 945 2 6
/partner/menu/updateproduct/15403 1 9754 0 0
/admin/order/id/34318/view 1 5199 0 0
/admin/partner/id/188/update/product/15522 1 4533 0 0
/admin/order/id/34070/changeStatus 2 40 0 0
/admin/order/id/35596/view 1 5226 0 0
/partner/orders/33908 1 5920 0 0
/admin/order/id/36450/view 2 10582 0 0
/partner/info 46 239643 0 1
/admin/partner/id/192/menu/1834 1 6059 0 0
/restorany/ajaxGoods/id/1297 1 557 0 1
/partner/menu/updateproduct/15395 1 9730 0 0
/admin/order/id/35014/view 1 5133 0 0
/admin/partner/id/120/info 1 6930 0 0
/admin/partner/id/138/info 8 54880 0 0
/site/getUserRecvizit/34909 2 3697 0 0
/restorany/mumu-dostavka 1 10806 0 0
/admin/order/id/35419/changeStatus 1 20 0 0
/restorany/ajaxGoods/id/1285 9 16101 1 4
/restorany/ajaxGoods/id/1268 1 699 0 0
/admin/partner/id/50/info 3 20917 0 0
/partner/menu/updateproduct/15314 3 29224 0 0
/partner/menu/updateproduct/15347 1 9778 0 0
/admin/order/id/34663/changeStatus 1 20 0 0
/admin/user/id/1391/orders/35254 2 6243 0 0
/admin/partner/id/136/profile 1 4465 0 0
/site/getUserRecvizit/34100 1 1856 0 0
/admin/partner/id/46/menu/182 1 6890 0 0
/admin/partner/id/109/ajaxAddMenuCatalog 1 20 0 0
/restorany/konditerskaya-studiya-provans 3 36971 0 0
/restorany/ajaxGoods/id/1897 2 2560 0 0
/admin/partner/id/52/menu/756 5 29311 0 0
/admin/order/id/34330/changeStatus 1 20 0 0
/site/getUserRecvizit/35421 1 1903 0 0
/admin/partner/id/111/update/product/7101 1 4396 0 0
/partner/menu/updateproduct/15321 3 29227 0 0
/admin/order/id/34801/view 1 4696 0 0
/site/getUserRecvizit/34842 1 1801 0 0
/admin/order/id/36443/view 6 30518 0 0
/admin/order/id/35565/view 1 5456 0 0
/admin/order/id/34093/changeStatus 1 20 0 0
/admin/partner/id/50/menu/1868 1 6583 0 0
/restorany/bon-appetit 5 139317 0 1
/admin/order/id/35074/changeStatus 1 20 0 0
/admin/order/id/34703/view 3 15058 0 0
/site/getUserRecvizit/35885 1 1845 0 0
/admin 124 551443 0 0
/admin/order/id/34074/view 1 5078 0 0
/restorany/edem/info 5 19910 3 5
/restorany/sushi-tema 7 107726 0 0
/admin/statistics/orders 8 47422 0 0
/admin/partner/id/111/menu 2 10728 0 0
/partner/menu/updateproduct/15331 1 9743 0 0
/admin/order/id/36444/changeStatus 1 20 0 0
/admin/user/id/1391/bonus 1 3384 0 0
/admin/order/id/34247/changeStatus 1 20 0 0
/pizza 94 720477 36 12
/restorany/ajaxGoods/id/1263 2 3088 0 0
/partner/menu/sortmenu 1 20 0 0
/admin/partner/id/93/info 1 7829 0 0
/restorany/ajaxGoods/id/1277 11 11323 0 2
/admin/order/id/35014/changeStatus 1 20 0 0
/site/getUserRecvizit/35014 1 2582 0 0
/partner/orders/33894 1 5775 0 1
/admin/order/id/34462/changeStatus 1 20 0 0
/partner/menu/updateproduct/15375 1 9732 0 0
/admin/partner/id/188/menu/1764 3 20843 0 0
/restorany/pascucci 23 619383 5 1
/admin/partner/id/85/info 1 8041 0 0
/admin/order/id/34895/view 1 5113 0 0
/site/getUserRecvizit/34838 1 1797 0 0
/restorany/edem 62 1053483 27 20
/admin/partner/id/120/menu 2 10826 0 0
/admin/order/id/35573/view 1 5126 0 0
/partner/menu/updateproduct/15336 2 19456 0 0
/site/getUserRecvizit/35774 1 1954 0 0
/partner/menu/updateproduct/15380 1 9738 0 0
/admin/order/id/35486/view 1 5131 0 0
/admin/order/id/34446/view 1 5083 0 0
/site/getUserRecvizit/36049 1 1893 0 0
/admin/partner/id/52/addgoods/766 1 3894 0 1
/partner/orders/updateOrderInfo 1 84 0 0
/admin/order/id/35558/changeStatus 1 20 0 0
/admin/partner/id/188/menu/1902 2 11813 0 0
/restorany/iskander 15 395481 0 0
/site/SetCityCookie/2 7 147 0 2
/admin/partner/id/147/menu 5 27974 0 0
/admin/order/id/35248/view 1 5141 0 0
/admin/order/id/35569/view 2 10396 0 0
/admin/partner/id/137/info 1 6879 0 0
/restorany/cherri 6 141342 0 0
/partner/menu/updateproduct/15397 1 9732 0 0
/admin/partner/id/142/info 2 13738 0 0
/partner/menu/1895 63 335141 0 0
/restorany/ajaxGoods/id/1288 4 11772 0 0
/admin/order/id/36183/changeStatus 1 20 0 0
/admin/order/id/34330/view 1 5386 0 0
/partner/menu/updateproduct/15373 2 19526 0 0
/admin/order/id/35590/view 3 15425 0 0
/site/getUserRecvizit/34344 1 1849 0 0
/admin/order/id/34067/view 1 5228 0 0
/site/getUserRecvizit/34897 1 1792 0 0
/restorany/ajaxGoods/id/1895 2 5326 0 1
/admin/partner/id/147/payment 1 24 0 0
/restorany/ajaxGoods/id/1850 2 896 0 1
/admin/partner/id/100/menu/706 3 16212 0 0
/admin/user/id/1707/profile 1 2991 0 0
/admin/order/id/34901/view 2 10313 0 0
/restorany/ajaxGoods/id/1261 2 2610 0 0
/restorany/ajaxGoods/id/1392 2 1799 0 0
/admin/order/id/36449/view 1 5229 0 0
/admin/partner/id/109/menu/1642 10 65767 0 0
/site/getUserRecvizit/35504 1 1898 0 0
/partner/menu/updateproduct/15304 2 19407 0 0
/admin/order/id/34464/view 1 5039 0 0
/admin/order/id/34807/view 1 5106 0 0
/site/getUserRecvizit/35427 1 1829 0 0
/admin/order/id/34081/changeStatus 1 20 0 0
/partner/menu/updateproduct/15355 1 9694 0 0
/site/getUserRecvizit/36015 1 1907 0 0
/partner/menu/updateproduct/15323 2 19461 0 0
/admin/user/id/1707/address 1 2954 0 0
/magaziny/confectionery 3 27047 0 0
/partner/menu/updateproduct/15365 3 29315 0 0
/partner/menu/deleteproduct/15000 1 20 0 0
/site/getUserRecvizit/36172 1 1887 0 0
/partner/menu/updateproduct/15324 2 19498 0 0
/restorany/ajaxGoods/id/1283 23 61732 0 4
/admin/partner/id/188/addgoods/1905 1 3869 0 1
/partner/menu/updateproduct/15440 1 9867 0 0
/admin/partner/id/5968/changePublication 1 32 0 0
/partner/menu/updateproduct/15316 3 29131 0 0
/partner/menu/updateproduct/15311 3 29219 0 0
/site/getUserRecvizit/35876 1 1844 0 0
/site/getUserRecvizit/34352 1 1797 0 0
/site/getUserRecvizit/34328 1 1799 0 0
/admin/order/id/35878/view 1 5148 0 0
/admin/order/id/35420/view 1 5112 0 0
/admin/partner/id/14348/changePublication 1 32 0 0
/partner/menu/updateproduct/15378 1 9750 0 0
/admin/order/id/35343/view 1 5996 0 0
/site/getUserRecvizit/34085 2 3762 0 0
/partner/menu/updateproduct/15411 2 19611 0 0
/admin/order/id/34892/view 1 4907 0 0
/admin/order/id/34724/view 1 5008 0 0
/partner/review 11 35519 0 0
/admin/order/id/35545/view 3 15403 0 0
/admin/order/id/34664/changeStatus 1 20 0 0
/site/getUserRecvizit/34852 1 1788 0 0
/admin/order/id/34453/view 3 15246 0 0
/site/getUserRecvizit/34326 1 1807 0 0
/partner/menu/addgoods/1838 13 38415 0 0
/restorany/ajaxGoods/id/1242 4 4258 1 0
/restorany/supermarket-al-hayat 37 1596908 1 1
/restorany/action/order 883 2168316 1 10
/admin/partner/id/1902/changePublicationMenu 1 29 0 0
/site/getUserRecvizit/35890 1 1867 0 0
/partner/profile 22 70832 0 2
/admin/order/id/34462/view 4 20888 0 0
/admin/order/id/34248/changeStatus 1 20 0 0
/restorany/randevu 380 5162052 213 122
/site/getUserRecvizit/34102 1 1809 0 0
/site/getUserRecvizit/34847 1 1924 0 0
/admin/order/id/34262/view 1 4718 0 0
/site/getUserRecvizit/35777 1 1878 0 0
/partner/menu/id/15319/changePublication 2 62 0 0
/admin/order/id/35349/view 1 5102 0 0
/partner/menu/updateproduct/15405 2 19611 0 0
/admin/order/id/35066/view 1 4687 0 0
/admin/order/id/35461/view 1 5306 0 0
/admin/order/id/35585/view 3 15183 0 0
/site/getPartnerRecvizit/34816 1 1415 0 0
/admin/order/id/34628/changeStatus 1 20 0 0
/admin/partner/id/188/menu/1900 1 5259 0 0
/admin/order/id/36170/view 3 17769 0 0
/restorany/kosmos/info 8 52984 0 1
/site/getUserRecvizit/35150 1 1883 0 0
/admin/order/id/35860/view 1 5068 0 0
/site/getUserRecvizit/35420 1 1830 0 0
/restorany/ajaxGoods/id/1833 22 32045 0 5
/restorany/smak/review 1 9996 0 0
/partner/message 2 4779 0 0
/partner/menu/updateproduct/15328 2 19466 0 0
/site/getUserRecvizit/35901 1 1841 0 0
/partner/menu/updateproduct/15377 2 19472 0 0
/site/getUserRecvizit/34108 1 1801 0 0
/partner/menu/1896 48 235483 0 0
/partner/menu/updateproduct/15382 5 49035 0 0
/partner/menu/updateproduct/15310 3 29178 0 0
/admin/order/id/35862/view 1 5116 0 0
/admin/order/id/33859/view 2 10015 0 0
/admin/partner/id/50/menu/678 1 7318 0 0
/partner/menu/updateproduct/15356 1 9775 0 0
/admin/order/id/35353/view 5 26438 0 0
/restorany/biskotti 1 17857 0 0
/site/getUserRecvizit/36054 1 1856 0 0
/admin/order/id/34905/view 1 5123 0 0
/admin/partner/id/45/menu 1 5343 0 0
/partner/menu/updateproduct/15332 1 9747 0 0
/admin/order/id/35587/view 1 5099 0 0
/partner/menu/updateproduct/15340 1 9778 0 0
/partner/menu/updateproduct/15441 1 9872 0 0
/admin/partner/id/161/profile 1 4585 0 0
/admin/partner/id/188/menu/1766 1 6477 0 0
/partner/menu/addgoods/1834 5 14755 0 0
/partner/menu/updateproduct/15349 1 9786 0 0
/admin/order/id/34903/changeStatus 2 40 0 0
/admin/order/id/34903/view 1 5129 0 0
/partner/menu/addgoods/1835 16 47120 0 0
/partner/menu/updateproduct/15389 2 19466 0 0
/admin/partner/id/161/menu/1606 1 6182 0 0
/partner/menu/addgoods/1895 23 67965 0 0
/admin/order/id/35576/changeStatus 1 20 0 0
/admin/order/id/35481/changeStatus 1 20 0 0
/partner/menu/updateproduct/15390 2 19573 0 0
/site/getUserRecvizit/36025 1 1889 0 0
/admin/order/id/36256/view 1 5334 0 0
/site/getUserRecvizit/34913 1 1941 0 0
/admin/order/id/35271/view 1 5086 0 0
/admin/order/id/34450/view 1 5252 0 0
/restorany/ajaxGoods/id/1257 6 3346 0 0
/admin/order/id/35570/view 2 10292 0 0
/admin/order/id/34908/view 1 5272 0 0
/admin/partner/id/109/addgoods/1874 1 3845 0 0
/partner/orders/id/34080/changeStatus 1 20 0 0
/admin/partner/id/188/menu 29 177064 0 0
/site/getUserRecvizit/35780 1 1918 0 0
/admin/partner/id/188/addgoods/1839 1 3861 0 0
/admin/order/id/35562/view 1 5179 0 0
/site/getUserRecvizit/34803 1 1862 0 0
/partner/menu/updatemenu/1838 1 2718 0 0
/admin/order/id/34316/changeStatus 1 20 0 0
/admin/partner/id/152/profile 1 4495 0 0
/site/getPartnerRecvizit/36347 1 1459 0 0
/admin/order/id/35262/changeStatus 1 20 0 0
/admin/order/id/36249/view 1 5125 0 0
/site/getUserRecvizit/35881 1 1820 0 0
/admin/partner/id/5963/changePublication 1 32 0 0
/restorany/ajaxGoods/id/1894 9 180 0 1
/admin/order/id/35770/view 1 5191 0 0
/restorany/ajaxGoods/id/1279 25 31641 0 5
/admin/statistics/payment 2 19175 0 0
/restorany/ajaxGoods/id/1264 2 1800 0 0
/admin/partner/id/52/menu/1922 1 6102 0 0
/admin/order/id/35271/changeStatus 1 20 0 0
/admin/partner/id/161/menu/1880 2 11144 0 0
/admin/order/id/36256/changeStatus 1 20 0 0
/restorany/kofeynya-restoran--shokolad/review 6 55359 1 1
/admin/order/id/34821/view 1 5059 0 0
/admin/order/id/34963/view 1 5079 0 0
/restorany/kafe-26 11 321756 0 0
/partner/menu/updateproduct/15422 1 9780 0 0
/blog/category/zoo-rubley 2 17152 2 2
/restorany/ajaxGoods/id/1270 2 2322 0 0
/admin/order/id/35881/view 1 5073 0 0
/site/getUserRecvizit/35888 1 1840 0 0
/partner/menu/1836 81 407634 0 0
/site/getUserRecvizit/35768 1 1915 0 0
/admin/partner/id/188/addgoods/1903 1 3860 0 0
/admin/partner/id/170/profile 1 4500 0 0
/admin/partner/id/52/menu/747 1 5562 0 0
/admin/statistics/orders_time 1 3441 0 0
/admin/section 3 16083 0 0
/admin/order/id/34725/changeStatus 1 20 0 0
/admin/partner/id/5941/changePublication 1 32 0 0
/admin/order/id/35632/view 1 5334 0 0
/admin/order/id/35076/view 3 15254 0 0
/restorany/ajaxGoods/id/1289 6 8872 0 1
/partner/menu/addgoods/1897 11 32439 0 0
/admin/order/id/34460/view 1 5212 0 0
/admin/order/id/35857/view 1 4832 0 0
/restorany/ajaxGoods/id/1246 3 2331 0 0
/admin/partner/id/136/info 1 6835 0 0
/site/getUserRecvizit/35892 1 1834 0 0
/restorany/gabriel 1 12159 0 0
/admin/order/id/34075/view 1 5137 0 0
/admin/order/id/34459/view 1 5272 0 0
/admin/partner/id/142/profile 1 4512 0 0
/admin/partner/id/188/ajaxAddMenuCatalog 4 80 0 0
/awstats/awstats.pl 2 12942 0 1
/restorany/green-park 5 188787 0 0
/admin/order/id/34118/view 1 5139 0 0
/admin/order/id/34104/changeStatus 1 20 0 0
/site/getUserRecvizit/34849 1 1781 0 0
/admin/partner/id/100/menu/1730 1 7151 0 0
/site/getUserRecvizit/34260 1 2813 0 0
/cart/plusProduct 132 11987 0 0
/user/profile 1 7050 1 1
/admin/partner/id/147/menu/1583 1 5926 0 0
/admin/partner/id/1819/changePublicationMenu 1 29 0 0
/admin/partner/id/50/menu/1869 1 6810 0 0
/restorany/dubay 157 5425813 58 20
/partner/menu/updateproduct/15367 2 19485 0 0
/partner/menu/updateproduct/15369 2 19469 0 0
/partner/menu/updateproduct/15305 2 19417 0 0
/admin/order/id/34904/view 1 5128 0 0
/admin/order/id/34891/view 1 5022 0 0
/admin/order/id/35579/view 2 10164 0 0
/partner/menu/updateproduct/15306 3 29223 0 0
/admin/partner/id/184/info 2 13996 0 0
/admin/order/id/35071/view 1 5171 0 0
/rolly-sushi 67 533833 30 6
/admin/partner/id/109/menu/931 28 157773 0 0
/partner/menu/deleteproduct/15003 1 20 0 0
/burger 56 383772 28 13
/partner/menu/updateproduct/15419 1 9783 0 0
/admin/partner/id/50/profile 1 4485 0 0
/admin/partner/id/52/menu/752 1 7487 0 1
/restorany/ajaxGoods/id/1254 1 1033 0 0
/admin/partner/id/52/menu/761 1 6010 0 0
/admin/order/id/34338/view 1 5232 0 0
/admin/partner/id/147/profile 1 4578 0 0
/site/getUserRecvizit/35135 2 3654 0 0
/site/getUserRecvizit/34080 1 1900 0 0
/restorany/shelkovyy-put/review 19 196713 12 7
/admin/partner/id/109/menu/945 2 11864 0 0
/admin/partner/id/105/profile 1 4591 0 0
/site/SetCityCookie/1 7 147 0 3
/restorany/kofeynya-restoran--shokolad 287 5703699 66 52
/admin/partner/id/220/menu/1912 1 6113 0 0
/partner/menu/updateproduct/15386 1 9775 0 0
/admin/order/id/34248/view 1 5036 0 0
/partner/menu/1897 43 202937 0 0
/site/getUserRecvizit/35887 1 1889 0 0
/products/ajaxCheckSpecs 145 157381 0 6
/restorany/ajaxGoods/id/1836 6 10374 0 0
/admin/order/id/35432/view 1 5093 0 0
/site/getUserRecvizit/34823 2 3634 0 0
/partner/orders/33768 1 5605 1 0
/admin/order/id/33859/changeStatus 2 40 0 0
/admin/order/id/34728/view 1 5234 0 0
/restorany/ajaxGoods/id/1250 3 2016 0 1
/magaziny/gastronomyiya 4 36044 0 1
/admin/partner/id/15263/changePublication 1 32 0 0
/admin/partner/id/52/menu/1489 1 9412 0 0
/partner/menu/updateproduct/15309 3 29210 0 0
/admin/order/id/35557/view 2 10508 0 0
/site/getUserRecvizit/34096 1 1802 0 0
/site/getPartnerRecvizit/35349 1 1484 0 0
/admin/partner/id/145/menu/1653 2 14350 0 0
/restorany/cafe-centrale 6 145811 0 0
/site/getUserRecvizit/34351 1 2036 0 0
/site/registrationAjax 1 64 0 0
/restorany/ajaxGoods/id/1389 1 612 0 0
/site/getUserRecvizit/34106 1 1790 0 0
/admin/order/id/34962/view 1 5632 0 0
/admin/order/id/35573/changeStatus 1 20 0 0
/admin/partner/id/188/update/product/15493 1 4559 0 0
/partner/menu/updateproduct/15426 1 9786 0 0
/site/getUserRecvizit/36082 1 2600 0 0
/partner/menu/updateproduct/15318 3 29234 0 0
/admin/order/id/34328/changeStatus 1 20 0 0
/restorany/kishmish 2 14373 2 0
/site/getUserRecvizit/34071 1 1813 0 0
/admin/partner/id/50/menu/662 1 6927 0 0
/partner/menu/updateproduct/15434 1 9907 0 0
/partner/menu/updateproduct/15344 1 9785 0 0
/partner/menu/updateproduct/15407 1 9754 0 0
/partner/menu/updateproduct/15392 1 9751 0 0
/admin/partner/id/220/menu/1914 1 6059 0 0
/admin/partner/id/111/menu/975 2 11208 0 0
/restorany/ajaxGoods/id/1266 6 6970 0 0
/admin/order/id/35775/view 1 5096 0 0
/admin/order/id/35501/view 1 5114 0 0
/admin/partner/id/50/menu 8 43016 0 0
/partner/orders/id/33908/changeStatus 2 40 0 1
/admin/order/id/36348/view 1 5184 0 0
/partner/orders 557 4376998 6 2
/partner/menu/updateproduct/15326 1 9713 0 0
/admin/order/id/36257/changeStatus 1 20 0 0
/site/getUserRecvizit/35343 1 2147 0 0
/admin/partner/id/87/info 2 16452 0 0
/site/getPartnerRecvizit/35421 1 1468 0 0
/admin/order/id/34334/changeStatus 1 20 0 0
/restorany/ajaxGoods/id/1248 5 5010 1 0
/admin/order/id/35429/view 1 5212 0 0
/partner/menu/deleteproduct/15005 1 20 0 0
/admin/partner/id/50/menu/1632 1 6255 0 0
/admin/order/id/35667/view 1 5100 0 0
/admin/order/id/35878/changeStatus 1 20 0 0
/admin/partner/id/110/menu/954 1 5593 0 0
/restorany/japengo-cafe 41 1359229 3 1
/partner/menu/updateproduct/15414 3 29310 0 0
/admin/order/id/34663/view 1 5074 0 0
/restorany/ajaxGoods/id/1294 14 21176 0 2
/partner/menu/updateproduct/15427 1 9791 0 0
/test2.php 2 112 1 1
/admin/partner/id/110/info 3 24583 0 0
/SetCityCookie/2 24 504 0 12
/partner/menu/updateproduct/15400 1 9754 0 0
/pages/sitemap 2 15778 2 1
/restorany/ajaxGoods/id/1287 3 3216 0 0
/admin/partner/id/161/info 6 40829 0 0
/partner/menu/id/15363/changePublication 2 62 0 0
/admin/partner/id/85/profile 1 4479 0 0
/admin/order/id/34817/view 1 5036 0 0
/admin/partner/id/14724/changePublication 1 32 0 0
/admin/order/id/34913/changeStatus 1 20 0 0
/partner/menu/updateproduct/15342 1 9700 0 0
/admin/partner/id/120/menu/1157 1 7243 0 0
/admin/order/id/35062/view 2 9731 0 0
/admin/order/id/34627/changeStatus 1 20 0 0
/partner/menu/updateproduct/15371 2 19534 0 0
/site/getUserRecvizit/35073 1 2107 0 0
/admin/order/id/35669/changeStatus 1 20 0 0
/site/getUserRecvizit/34258 1 1796 0 0
/partner/payment 2 7375 0 0
/blog/category/dostavka05 1 6999 1 0
/partner/menu/updateproduct/15384 2 19642 0 0
/restorany/ajaxGoods/id/1272 24 59107 0 6
/admin/order/id/34074/changeStatus 1 20 0 0
/admin/order/id/35482/view 1 5151 0 0
/site/getUserRecvizit/34844 1 1988 0 0
/admin/partner/id/120/menu/1350 1 6425 0 0
/admin/order/id/35783/view 2 10806 0 0
/restorany/shanti 3 103482 0 0
/partner/menu/updateproduct/15312 3 29206 0 0
/admin/order/id/35883/view 2 11820 0 0
/admin/partner/id/188/addgoods/1908 1 3861 0 0
/partner/menu/1834 7 30323 0 0
/admin/order/id/36450/changeStatus 1 20 0 0
/admin/order/id/34247/view 1 5184 0 0
/admin/order/id/35566/view 3 15900 0 0
/admin/partner/id/87/menu/325 2 15762 0 0
/site/getUserRecvizit/34835 1 1873 0 0
/restorany/ajaxGoods/id/1726 7 3352 0 0
/admin/partner/id/110/update/product/6948 1 4423 0 0
/admin/partner/id/52/menu/763 1 6506 0 0
/cart 34 271239 2 4
/admin/partner/id/161/addgoods/1872 2 7684 0 0
/admin/order/addordercomment 32 640 0 0
/site/getPartnerRecvizit/35063 1 1500 0 0
/admin/partner/id/87/menu 2 12500 0 0
/admin/order/id/34960/changeStatus 1 20 0 0
/partner/menu/updateproduct/15353 1 9705 0 0
/admin/order/id/36171/view 3 17460 0 0
/site/getUserRecvizit/34248 1 1862 0 0
/pages/oplatapay2pay 1 8687 1 0
/restorany/ajaxGoods/id/1252 16 11112 0 5
/admin/partner/id/184/menu 2 11172 0 0
/partner/menu/updateproduct/15420 1 9798 0 0
/partner/menu/updateproduct/15417 1 9816 0 0
/admin/order/id/35079/view 1 5254 0 0
END_SIDER
